transcript
# Compile of controllerTB.v was successful.
do simulation.do
# vsim -gui work.controllerTB 
# Start time: 11:59:14 on Jan 01,2023
# Loading work.controllerTB
# Loading work.Controller
# Loading work.IntructionMemory
# Loading work.DataMemory
# Loading work.Processor
# Loading work.PC
# Loading work.FDBuffer
# Loading work.hazardDetectionUnit
# Loading work.regfile
# Loading work.ControlUnit
# Loading work.DEBuffer
# Loading work.ForwardingUnit
# Loading work.ALU
# Loading work.EMBuffer
# Loading work.stackPointer
# Loading work.MWBuffer
# Loading work.WriteBack
run
# Memo[000] = 0000
# reg[0] = 0000,reg[1] = 0000,reg[2] = 0000,reg[3] = 0000,reg[4] = 0000,reg[5] = 0000,reg[6] = 0000,reg[7] = 0000
run
# Memo[000] = 0000
# reg[0] = 0000,reg[1] = 0000,reg[2] = 0000,reg[3] = 0000,reg[4] = 0000,reg[5] = 0000,reg[6] = 0000,reg[7] = 0000
run
# Memo[000] = 0000
# reg[0] = 0000,reg[1] = 0000,reg[2] = 0000,reg[3] = 0000,reg[4] = 0000,reg[5] = 0000,reg[6] = 0000,reg[7] = 0000
run
# Memo[000] = 0000
# reg[0] = 0000,reg[1] = 0000,reg[2] = 0000,reg[3] = 0000,reg[4] = 0000,reg[5] = 0000,reg[6] = 0000,reg[7] = 0000
run
# Memo[045] = 0000
# reg[0] = 0000,reg[1] = 0000,reg[2] = 0000,reg[3] = 0000,reg[4] = 0000,reg[5] = 0000,reg[6] = 0000,reg[7] = 0000
run
# Memo[000] = 0000
# reg[0] = 0000,reg[1] = 0045,reg[2] = 0000,reg[3] = 0000,reg[4] = 0000,reg[5] = 0000,reg[6] = 0000,reg[7] = 0000
run
# Memo[000] = 0000
# reg[0] = 0000,reg[1] = 0045,reg[2] = 0000,reg[3] = 0000,reg[4] = 0000,reg[5] = 0000,reg[6] = 0000,reg[7] = 0000
run
# Memo[000] = 0000
# reg[0] = 0000,reg[1] = 0045,reg[2] = 0000,reg[3] = 0000,reg[4] = 0000,reg[5] = 0000,reg[6] = 0000,reg[7] = 0000
run
# Memo[7ff] = 0046
# reg[0] = 0000,reg[1] = 0045,reg[2] = 0000,reg[3] = 0000,reg[4] = 0000,reg[5] = 0000,reg[6] = 0000,reg[7] = 0000
# PUSH SP =       2046
do simulation.do
# End time: 12:03:39 on Jan 01,2023, Elapsed time: 0:04:25
# Errors: 0, Warnings: 2
# vsim -gui work.controllerTB 
# Start time: 12:03:40 on Jan 01,2023
# Loading work.controllerTB
# Loading work.Controller
# Loading work.IntructionMemory
# Loading work.DataMemory
# Loading work.Processor
# Loading work.PC
# Loading work.FDBuffer
# Loading work.hazardDetectionUnit
# Loading work.regfile
# Loading work.ControlUnit
# Loading work.DEBuffer
# Loading work.ForwardingUnit
# Loading work.ALU
# Loading work.EMBuffer
# Loading work.stackPointer
# Loading work.MWBuffer
# Loading work.WriteBack
run
# Memo[000] = 0000
# reg[0] = 0000,reg[1] = 0000,reg[2] = 0000,reg[3] = 0000,reg[4] = 0000,reg[5] = 0000,reg[6] = 0000,reg[7] = 0000
run
# Memo[000] = 0000
# reg[0] = 0000,reg[1] = 0000,reg[2] = 0000,reg[3] = 0000,reg[4] = 0000,reg[5] = 0000,reg[6] = 0000,reg[7] = 0000
run
# Memo[000] = 0000
# reg[0] = 0000,reg[1] = 0000,reg[2] = 0000,reg[3] = 0000,reg[4] = 0000,reg[5] = 0000,reg[6] = 0000,reg[7] = 0000
run
# Memo[000] = 0000
# reg[0] = 0000,reg[1] = 0000,reg[2] = 0000,reg[3] = 0000,reg[4] = 0000,reg[5] = 0000,reg[6] = 0000,reg[7] = 0000
run
# Memo[02d] = 0000
# reg[0] = 0000,reg[1] = 0000,reg[2] = 0000,reg[3] = 0000,reg[4] = 0000,reg[5] = 0000,reg[6] = 0000,reg[7] = 0000
run
# Memo[000] = 0000
# reg[0] = 0000,reg[1] = 002d,reg[2] = 0000,reg[3] = 0000,reg[4] = 0000,reg[5] = 0000,reg[6] = 0000,reg[7] = 0000
run
# Memo[000] = 0000
# reg[0] = 0000,reg[1] = 002d,reg[2] = 0000,reg[3] = 0000,reg[4] = 0000,reg[5] = 0000,reg[6] = 0000,reg[7] = 0000
run
# Memo[000] = 0000
# reg[0] = 0000,reg[1] = 002d,reg[2] = 0000,reg[3] = 0000,reg[4] = 0000,reg[5] = 0000,reg[6] = 0000,reg[7] = 0000
run
# Memo[7ff] = 002e
# reg[0] = 0000,reg[1] = 002d,reg[2] = 0000,reg[3] = 0000,reg[4] = 0000,reg[5] = 0000,reg[6] = 0000,reg[7] = 0000
# PUSH SP =       2046
run
# Memo[7fe] = 0000
# reg[0] = 0000,reg[1] = 002d,reg[2] = 0000,reg[3] = 0000,reg[4] = 0000,reg[5] = 0000,reg[6] = 0000,reg[7] = 0000
# PUSH SP =       2045
run
# Memo[460] = 0000
# reg[0] = 0000,reg[1] = 002d,reg[2] = 0000,reg[3] = 0000,reg[4] = 0000,reg[5] = 0000,reg[6] = 0000,reg[7] = 0000
restart -f
add wave -position end sim:/controllerTB/controller/processor/*
run
# Memo[000] = 0000
# reg[0] = 0000,reg[1] = 0000,reg[2] = 0000,reg[3] = 0000,reg[4] = 0000,reg[5] = 0000,reg[6] = 0000,reg[7] = 0000
run
# Memo[000] = 0000
# reg[0] = 0000,reg[1] = 0000,reg[2] = 0000,reg[3] = 0000,reg[4] = 0000,reg[5] = 0000,reg[6] = 0000,reg[7] = 0000
run
# Memo[000] = 0000
# reg[0] = 0000,reg[1] = 0000,reg[2] = 0000,reg[3] = 0000,reg[4] = 0000,reg[5] = 0000,reg[6] = 0000,reg[7] = 0000
run
# Memo[000] = 0000
# reg[0] = 0000,reg[1] = 0000,reg[2] = 0000,reg[3] = 0000,reg[4] = 0000,reg[5] = 0000,reg[6] = 0000,reg[7] = 0000
run
# Memo[02d] = 0000
# reg[0] = 0000,reg[1] = 0000,reg[2] = 0000,reg[3] = 0000,reg[4] = 0000,reg[5] = 0000,reg[6] = 0000,reg[7] = 0000
run
# Memo[000] = 0000
# reg[0] = 0000,reg[1] = 002d,reg[2] = 0000,reg[3] = 0000,reg[4] = 0000,reg[5] = 0000,reg[6] = 0000,reg[7] = 0000
run
# Memo[000] = 0000
# reg[0] = 0000,reg[1] = 002d,reg[2] = 0000,reg[3] = 0000,reg[4] = 0000,reg[5] = 0000,reg[6] = 0000,reg[7] = 0000
run
# Memo[000] = 0000
# reg[0] = 0000,reg[1] = 002d,reg[2] = 0000,reg[3] = 0000,reg[4] = 0000,reg[5] = 0000,reg[6] = 0000,reg[7] = 0000
quit -sim
# End time: 12:08:23 on Jan 01,2023, Elapsed time: 0:04:43
# Errors: 0, Warnings: 1
# Compile of controlUnit.v was successful with warnings.
do simulation.do
# vsim -gui work.controllerTB 
# Start time: 12:16:34 on Jan 01,2023
# Loading work.controllerTB
# Loading work.Controller
# Loading work.IntructionMemory
# Loading work.DataMemory
# Loading work.Processor
# Loading work.PC
# Loading work.FDBuffer
# Loading work.hazardDetectionUnit
# Loading work.regfile
# Loading work.ControlUnit
# Loading work.DEBuffer
# Loading work.ForwardingUnit
# Loading work.ALU
# Loading work.EMBuffer
# Loading work.stackPointer
# Loading work.MWBuffer
# Loading work.WriteBack
run
# Memo[000] = 0000
# reg[0] = 0000,reg[1] = 0000,reg[2] = 0000,reg[3] = 0000,reg[4] = 0000,reg[5] = 0000,reg[6] = 0000,reg[7] = 0000
run
# Memo[000] = 0000
# reg[0] = 0000,reg[1] = 0000,reg[2] = 0000,reg[3] = 0000,reg[4] = 0000,reg[5] = 0000,reg[6] = 0000,reg[7] = 0000
run
# Memo[000] = 0000
# reg[0] = 0000,reg[1] = 0000,reg[2] = 0000,reg[3] = 0000,reg[4] = 0000,reg[5] = 0000,reg[6] = 0000,reg[7] = 0000
run
# Memo[000] = 0000
# reg[0] = 0000,reg[1] = 0000,reg[2] = 0000,reg[3] = 0000,reg[4] = 0000,reg[5] = 0000,reg[6] = 0000,reg[7] = 0000
run
# Memo[02d] = 0000
# reg[0] = 0000,reg[1] = 0000,reg[2] = 0000,reg[3] = 0000,reg[4] = 0000,reg[5] = 0000,reg[6] = 0000,reg[7] = 0000
run
# Memo[000] = 0000
# reg[0] = 0000,reg[1] = 002d,reg[2] = 0000,reg[3] = 0000,reg[4] = 0000,reg[5] = 0000,reg[6] = 0000,reg[7] = 0000
run
# Memo[000] = 0000
# reg[0] = 0000,reg[1] = 002d,reg[2] = 0000,reg[3] = 0000,reg[4] = 0000,reg[5] = 0000,reg[6] = 0000,reg[7] = 0000
run
# Memo[000] = 0000
# reg[0] = 0000,reg[1] = 002d,reg[2] = 0000,reg[3] = 0000,reg[4] = 0000,reg[5] = 0000,reg[6] = 0000,reg[7] = 0000
run
# Memo[006] = 0000
# reg[0] = 0000,reg[1] = 002d,reg[2] = 0000,reg[3] = 0000,reg[4] = 0000,reg[5] = 0000,reg[6] = 0000,reg[7] = 0000
run
# Memo[7ff] = 002f
# reg[0] = 0006,reg[1] = 002d,reg[2] = 0000,reg[3] = 0000,reg[4] = 0000,reg[5] = 0000,reg[6] = 0000,reg[7] = 0000
# PUSH SP =       2046
run
# Memo[7fe] = 0000
# reg[0] = 0006,reg[1] = 002d,reg[2] = 0000,reg[3] = 0000,reg[4] = 0000,reg[5] = 0000,reg[6] = 0000,reg[7] = 0000
# PUSH SP =       2045
run
# Memo[000] = 0000
# reg[0] = 0006,reg[1] = 002d,reg[2] = 0000,reg[3] = 0000,reg[4] = 0000,reg[5] = 0000,reg[6] = 0000,reg[7] = 0000
run
# Memo[02d] = 0000
# reg[0] = 0006,reg[1] = 002d,reg[2] = 0000,reg[3] = 0000,reg[4] = 0000,reg[5] = 0000,reg[6] = 0000,reg[7] = 0000
run
# Memo[02d] = 0000
# reg[0] = 0006,reg[1] = 002d,reg[2] = 0000,reg[3] = 0000,reg[4] = 002d,reg[5] = 0000,reg[6] = 0000,reg[7] = 0000
run
# Memo[7fe] = 0000
# reg[0] = 0006,reg[1] = 002d,reg[2] = 0000,reg[3] = 0000,reg[4] = 002d,reg[5] = 0000,reg[6] = 0000,reg[7] = 0000
# POP SP =       2046
run
# Memo[7ff] = 002f
# reg[0] = 0006,reg[1] = 002d,reg[2] = 0000,reg[3] = 0000,reg[4] = 002d,reg[5] = 0000,reg[6] = 0000,reg[7] = 0000
# POP SP =       2047
run
# Memo[000] = 0000
# reg[0] = 0006,reg[1] = 002d,reg[2] = 0000,reg[3] = 0000,reg[4] = 002d,reg[5] = 0000,reg[6] = 0000,reg[7] = 0000
run
# Memo[000] = 0000
# reg[0] = 0006,reg[1] = 002d,reg[2] = 0000,reg[3] = 0000,reg[4] = 002d,reg[5] = 0000,reg[6] = 0000,reg[7] = 0000
run
# Memo[00c] = 0000
# reg[0] = 0006,reg[1] = 002d,reg[2] = 0000,reg[3] = 0000,reg[4] = 002d,reg[5] = 0000,reg[6] = 0000,reg[7] = 0000
run
# Memo[000] = 0000
# reg[0] = 000c,reg[1] = 002d,reg[2] = 0000,reg[3] = 0000,reg[4] = 002d,reg[5] = 0000,reg[6] = 0000,reg[7] = 0000
run
# Memo[024] = 0000
# reg[0] = 000c,reg[1] = 002d,reg[2] = 0000,reg[3] = 0000,reg[4] = 002d,reg[5] = 0000,reg[6] = 0000,reg[7] = 0000
run
# Memo[000] = 0000
# reg[0] = 000c,reg[1] = 002d,reg[2] = 0000,reg[3] = 0000,reg[4] = 002d,reg[5] = 0000,reg[6] = 0000,reg[7] = 0024
run
# Memo[000] = 0000
# reg[0] = 000c,reg[1] = 002d,reg[2] = 0000,reg[3] = 0000,reg[4] = 002d,reg[5] = 0000,reg[6] = 0000,reg[7] = 0024
run
# Memo[050] = 0000
# reg[0] = 000c,reg[1] = 002d,reg[2] = 0000,reg[3] = 0000,reg[4] = 002d,reg[5] = 0000,reg[6] = 0000,reg[7] = 0024
run
# Memo[001] = 0000
# reg[0] = 000c,reg[1] = 0050,reg[2] = 0000,reg[3] = 0000,reg[4] = 002d,reg[5] = 0000,reg[6] = 0000,reg[7] = 0024
run
# Memo[001] = 0000
# reg[0] = 000c,reg[1] = 0050,reg[2] = 0001,reg[3] = 0000,reg[4] = 002d,reg[5] = 0000,reg[6] = 0000,reg[7] = 0024
run
# Memo[001] = 0000
# reg[0] = 000c,reg[1] = 0050,reg[2] = 0001,reg[3] = 0000,reg[4] = 002d,reg[5] = 0000,reg[6] = 0000,reg[7] = 0024
restart -f
# ** Note: (vsim-12125) Error and warning message counts have been reset to '0' because of 'restart'.
add wave -position end sim:/controllerTB/controller/processor/*
run
# Memo[000] = 0000
# reg[0] = 0000,reg[1] = 0000,reg[2] = 0000,reg[3] = 0000,reg[4] = 0000,reg[5] = 0000,reg[6] = 0000,reg[7] = 0000
run
# Memo[000] = 0000
# reg[0] = 0000,reg[1] = 0000,reg[2] = 0000,reg[3] = 0000,reg[4] = 0000,reg[5] = 0000,reg[6] = 0000,reg[7] = 0000
run
# Memo[000] = 0000
# reg[0] = 0000,reg[1] = 0000,reg[2] = 0000,reg[3] = 0000,reg[4] = 0000,reg[5] = 0000,reg[6] = 0000,reg[7] = 0000
run
# Memo[000] = 0000
# reg[0] = 0000,reg[1] = 0000,reg[2] = 0000,reg[3] = 0000,reg[4] = 0000,reg[5] = 0000,reg[6] = 0000,reg[7] = 0000
run
# Memo[02d] = 0000
# reg[0] = 0000,reg[1] = 0000,reg[2] = 0000,reg[3] = 0000,reg[4] = 0000,reg[5] = 0000,reg[6] = 0000,reg[7] = 0000
run
# Memo[000] = 0000
# reg[0] = 0000,reg[1] = 002d,reg[2] = 0000,reg[3] = 0000,reg[4] = 0000,reg[5] = 0000,reg[6] = 0000,reg[7] = 0000
run
# Memo[000] = 0000
# reg[0] = 0000,reg[1] = 002d,reg[2] = 0000,reg[3] = 0000,reg[4] = 0000,reg[5] = 0000,reg[6] = 0000,reg[7] = 0000
run
# Memo[000] = 0000
# reg[0] = 0000,reg[1] = 002d,reg[2] = 0000,reg[3] = 0000,reg[4] = 0000,reg[5] = 0000,reg[6] = 0000,reg[7] = 0000
run
# Memo[006] = 0000
# reg[0] = 0000,reg[1] = 002d,reg[2] = 0000,reg[3] = 0000,reg[4] = 0000,reg[5] = 0000,reg[6] = 0000,reg[7] = 0000
run
# Memo[7ff] = 002f
# reg[0] = 0006,reg[1] = 002d,reg[2] = 0000,reg[3] = 0000,reg[4] = 0000,reg[5] = 0000,reg[6] = 0000,reg[7] = 0000
# PUSH SP =       2046
run
# Memo[7fe] = 0000
# reg[0] = 0006,reg[1] = 002d,reg[2] = 0000,reg[3] = 0000,reg[4] = 0000,reg[5] = 0000,reg[6] = 0000,reg[7] = 0000
# PUSH SP =       2045
run
# Memo[000] = 0000
# reg[0] = 0006,reg[1] = 002d,reg[2] = 0000,reg[3] = 0000,reg[4] = 0000,reg[5] = 0000,reg[6] = 0000,reg[7] = 0000
run
# Memo[02d] = 0000
# reg[0] = 0006,reg[1] = 002d,reg[2] = 0000,reg[3] = 0000,reg[4] = 0000,reg[5] = 0000,reg[6] = 0000,reg[7] = 0000
run
# Memo[02d] = 0000
# reg[0] = 0006,reg[1] = 002d,reg[2] = 0000,reg[3] = 0000,reg[4] = 002d,reg[5] = 0000,reg[6] = 0000,reg[7] = 0000
run
# Memo[7fe] = 0000
# reg[0] = 0006,reg[1] = 002d,reg[2] = 0000,reg[3] = 0000,reg[4] = 002d,reg[5] = 0000,reg[6] = 0000,reg[7] = 0000
# POP SP =       2046
run
# Memo[7ff] = 002f
# reg[0] = 0006,reg[1] = 002d,reg[2] = 0000,reg[3] = 0000,reg[4] = 002d,reg[5] = 0000,reg[6] = 0000,reg[7] = 0000
# POP SP =       2047
run
# Memo[000] = 0000
# reg[0] = 0006,reg[1] = 002d,reg[2] = 0000,reg[3] = 0000,reg[4] = 002d,reg[5] = 0000,reg[6] = 0000,reg[7] = 0000
run
# Memo[000] = 0000
# reg[0] = 0006,reg[1] = 002d,reg[2] = 0000,reg[3] = 0000,reg[4] = 002d,reg[5] = 0000,reg[6] = 0000,reg[7] = 0000
run
# Memo[00c] = 0000
# reg[0] = 0006,reg[1] = 002d,reg[2] = 0000,reg[3] = 0000,reg[4] = 002d,reg[5] = 0000,reg[6] = 0000,reg[7] = 0000
run
# Memo[000] = 0000
# reg[0] = 000c,reg[1] = 002d,reg[2] = 0000,reg[3] = 0000,reg[4] = 002d,reg[5] = 0000,reg[6] = 0000,reg[7] = 0000
run
# Memo[024] = 0000
# reg[0] = 000c,reg[1] = 002d,reg[2] = 0000,reg[3] = 0000,reg[4] = 002d,reg[5] = 0000,reg[6] = 0000,reg[7] = 0000
run
# Memo[000] = 0000
# reg[0] = 000c,reg[1] = 002d,reg[2] = 0000,reg[3] = 0000,reg[4] = 002d,reg[5] = 0000,reg[6] = 0000,reg[7] = 0024
run
# Memo[000] = 0000
# reg[0] = 000c,reg[1] = 002d,reg[2] = 0000,reg[3] = 0000,reg[4] = 002d,reg[5] = 0000,reg[6] = 0000,reg[7] = 0024
run
# Memo[050] = 0000
# reg[0] = 000c,reg[1] = 002d,reg[2] = 0000,reg[3] = 0000,reg[4] = 002d,reg[5] = 0000,reg[6] = 0000,reg[7] = 0024
run
# Memo[001] = 0000
# reg[0] = 000c,reg[1] = 0050,reg[2] = 0000,reg[3] = 0000,reg[4] = 002d,reg[5] = 0000,reg[6] = 0000,reg[7] = 0024
run
# Memo[001] = 0000
# reg[0] = 000c,reg[1] = 0050,reg[2] = 0001,reg[3] = 0000,reg[4] = 002d,reg[5] = 0000,reg[6] = 0000,reg[7] = 0024
quit -sim
# End time: 12:26:33 on Jan 01,2023, Elapsed time: 0:09:59
# Errors: 0, Warnings: 1
# Compile of controlUnit.v was successful with warnings.
# Compile of controlUnit.v was successful.
# Compile of processor.v was successful.
# Compile of DEBuffer.v was successful.
# 3 compiles, 0 failed with no errors.
do simulation.do
# vsim -gui work.controllerTB 
# Start time: 12:34:11 on Jan 01,2023
# Loading work.controllerTB
# Loading work.Controller
# Loading work.IntructionMemory
# Loading work.DataMemory
# Loading work.Processor
# Loading work.PC
# Loading work.FDBuffer
# Loading work.hazardDetectionUnit
# Loading work.regfile
# Loading work.ControlUnit
# Loading work.DEBuffer
# Loading work.ForwardingUnit
# Loading work.ALU
# Loading work.EMBuffer
# Loading work.stackPointer
# Loading work.MWBuffer
# Loading work.WriteBack
run
# Memo[000] = 0000
# reg[0] = 0000,reg[1] = 0000,reg[2] = 0000,reg[3] = 0000,reg[4] = 0000,reg[5] = 0000,reg[6] = 0000,reg[7] = 0000
run
# Memo[000] = 0000
# reg[0] = 0000,reg[1] = 0000,reg[2] = 0000,reg[3] = 0000,reg[4] = 0000,reg[5] = 0000,reg[6] = 0000,reg[7] = 0000
run
# Memo[000] = 0000
# reg[0] = 0000,reg[1] = 0000,reg[2] = 0000,reg[3] = 0000,reg[4] = 0000,reg[5] = 0000,reg[6] = 0000,reg[7] = 0000
run
# Memo[000] = 0000
# reg[0] = 0000,reg[1] = 0000,reg[2] = 0000,reg[3] = 0000,reg[4] = 0000,reg[5] = 0000,reg[6] = 0000,reg[7] = 0000
run
# Memo[02d] = 0000
# reg[0] = 0000,reg[1] = 0000,reg[2] = 0000,reg[3] = 0000,reg[4] = 0000,reg[5] = 0000,reg[6] = 0000,reg[7] = 0000
run
# Memo[000] = 0000
# reg[0] = 0000,reg[1] = 002d,reg[2] = 0000,reg[3] = 0000,reg[4] = 0000,reg[5] = 0000,reg[6] = 0000,reg[7] = 0000
run
# Memo[000] = 0000
# reg[0] = 0000,reg[1] = 002d,reg[2] = 0000,reg[3] = 0000,reg[4] = 0000,reg[5] = 0000,reg[6] = 0000,reg[7] = 0000
run
# Memo[000] = 0000
# reg[0] = 0000,reg[1] = 002d,reg[2] = 0000,reg[3] = 0000,reg[4] = 0000,reg[5] = 0000,reg[6] = 0000,reg[7] = 0000
run
# Memo[006] = 0000
# reg[0] = 0000,reg[1] = 002d,reg[2] = 0000,reg[3] = 0000,reg[4] = 0000,reg[5] = 0000,reg[6] = 0000,reg[7] = 0000
run
# Memo[7ff] = 002f
# reg[0] = 0006,reg[1] = 002d,reg[2] = 0000,reg[3] = 0000,reg[4] = 0000,reg[5] = 0000,reg[6] = 0000,reg[7] = 0000
# PUSH SP =       2046
run
# Memo[7fe] = 0000
# reg[0] = 0006,reg[1] = 002d,reg[2] = 0000,reg[3] = 0000,reg[4] = 0000,reg[5] = 0000,reg[6] = 0000,reg[7] = 0000
# PUSH SP =       2045
run
# Memo[000] = 0000
# reg[0] = 0006,reg[1] = 002d,reg[2] = 0000,reg[3] = 0000,reg[4] = 0000,reg[5] = 0000,reg[6] = 0000,reg[7] = 0000
run
# Memo[02d] = 0000
# reg[0] = 0006,reg[1] = 002d,reg[2] = 0000,reg[3] = 0000,reg[4] = 0000,reg[5] = 0000,reg[6] = 0000,reg[7] = 0000
run
# Memo[02d] = 0000
# reg[0] = 0006,reg[1] = 002d,reg[2] = 0000,reg[3] = 0000,reg[4] = 002d,reg[5] = 0000,reg[6] = 0000,reg[7] = 0000
run
# Memo[7fe] = 0000
# reg[0] = 0006,reg[1] = 002d,reg[2] = 0000,reg[3] = 0000,reg[4] = 002d,reg[5] = 0000,reg[6] = 0000,reg[7] = 0000
# POP SP =       2046
run
# Memo[7ff] = 002f
# reg[0] = 0006,reg[1] = 002d,reg[2] = 0000,reg[3] = 0000,reg[4] = 002d,reg[5] = 0000,reg[6] = 0000,reg[7] = 0000
# POP SP =       2047
run
# Memo[000] = 0000
# reg[0] = 0006,reg[1] = 002d,reg[2] = 0000,reg[3] = 0000,reg[4] = 002d,reg[5] = 0000,reg[6] = 0000,reg[7] = 0000
run
# Memo[000] = 0000
# reg[0] = 0006,reg[1] = 002d,reg[2] = 0000,reg[3] = 0000,reg[4] = 002d,reg[5] = 0000,reg[6] = 0000,reg[7] = 0000
run
# Memo[00c] = 0000
# reg[0] = 0006,reg[1] = 002d,reg[2] = 0000,reg[3] = 0000,reg[4] = 002d,reg[5] = 0000,reg[6] = 0000,reg[7] = 0000
run
# Memo[000] = 0000
# reg[0] = 000c,reg[1] = 002d,reg[2] = 0000,reg[3] = 0000,reg[4] = 002d,reg[5] = 0000,reg[6] = 0000,reg[7] = 0000
run
# Memo[024] = 0000
# reg[0] = 000c,reg[1] = 002d,reg[2] = 0000,reg[3] = 0000,reg[4] = 002d,reg[5] = 0000,reg[6] = 0000,reg[7] = 0000
run
# Memo[000] = 0000
# reg[0] = 000c,reg[1] = 002d,reg[2] = 0000,reg[3] = 0000,reg[4] = 002d,reg[5] = 0000,reg[6] = 0000,reg[7] = 0024
run
# Memo[000] = 0000
# reg[0] = 000c,reg[1] = 002d,reg[2] = 0000,reg[3] = 0000,reg[4] = 002d,reg[5] = 0000,reg[6] = 0000,reg[7] = 0024
run
# Memo[050] = 0000
# reg[0] = 000c,reg[1] = 002d,reg[2] = 0000,reg[3] = 0000,reg[4] = 002d,reg[5] = 0000,reg[6] = 0000,reg[7] = 0024
run
# Memo[001] = 0000
# reg[0] = 000c,reg[1] = 0050,reg[2] = 0000,reg[3] = 0000,reg[4] = 002d,reg[5] = 0000,reg[6] = 0000,reg[7] = 0024
run
# Memo[001] = 0000
# reg[0] = 000c,reg[1] = 0050,reg[2] = 0001,reg[3] = 0000,reg[4] = 002d,reg[5] = 0000,reg[6] = 0000,reg[7] = 0024
run
# Memo[001] = 0000
# reg[0] = 000c,reg[1] = 0050,reg[2] = 0001,reg[3] = 0000,reg[4] = 002d,reg[5] = 0000,reg[6] = 0000,reg[7] = 0024
run
# Memo[000] = 0000
# reg[0] = 000c,reg[1] = 0050,reg[2] = 0001,reg[3] = 0000,reg[4] = 002d,reg[5] = 0000,reg[6] = 0000,reg[7] = 0024
restart -f
# ** Note: (vsim-12125) Error and warning message counts have been reset to '0' because of 'restart'.
add wave -position end sim:/controllerTB/controller/processor/*
run
# Memo[000] = 0000
# reg[0] = 0000,reg[1] = 0000,reg[2] = 0000,reg[3] = 0000,reg[4] = 0000,reg[5] = 0000,reg[6] = 0000,reg[7] = 0000
run
# Memo[000] = 0000
# reg[0] = 0000,reg[1] = 0000,reg[2] = 0000,reg[3] = 0000,reg[4] = 0000,reg[5] = 0000,reg[6] = 0000,reg[7] = 0000
run
# Memo[000] = 0000
# reg[0] = 0000,reg[1] = 0000,reg[2] = 0000,reg[3] = 0000,reg[4] = 0000,reg[5] = 0000,reg[6] = 0000,reg[7] = 0000
run
# Memo[000] = 0000
# reg[0] = 0000,reg[1] = 0000,reg[2] = 0000,reg[3] = 0000,reg[4] = 0000,reg[5] = 0000,reg[6] = 0000,reg[7] = 0000
run
# Memo[02d] = 0000
# reg[0] = 0000,reg[1] = 0000,reg[2] = 0000,reg[3] = 0000,reg[4] = 0000,reg[5] = 0000,reg[6] = 0000,reg[7] = 0000
run
# Memo[000] = 0000
# reg[0] = 0000,reg[1] = 002d,reg[2] = 0000,reg[3] = 0000,reg[4] = 0000,reg[5] = 0000,reg[6] = 0000,reg[7] = 0000
run
# Memo[000] = 0000
# reg[0] = 0000,reg[1] = 002d,reg[2] = 0000,reg[3] = 0000,reg[4] = 0000,reg[5] = 0000,reg[6] = 0000,reg[7] = 0000
run
# Memo[000] = 0000
# reg[0] = 0000,reg[1] = 002d,reg[2] = 0000,reg[3] = 0000,reg[4] = 0000,reg[5] = 0000,reg[6] = 0000,reg[7] = 0000
run
# Memo[006] = 0000
# reg[0] = 0000,reg[1] = 002d,reg[2] = 0000,reg[3] = 0000,reg[4] = 0000,reg[5] = 0000,reg[6] = 0000,reg[7] = 0000
run
# Memo[7ff] = 002f
# reg[0] = 0006,reg[1] = 002d,reg[2] = 0000,reg[3] = 0000,reg[4] = 0000,reg[5] = 0000,reg[6] = 0000,reg[7] = 0000
# PUSH SP =       2046
run
# Memo[7fe] = 0000
# reg[0] = 0006,reg[1] = 002d,reg[2] = 0000,reg[3] = 0000,reg[4] = 0000,reg[5] = 0000,reg[6] = 0000,reg[7] = 0000
# PUSH SP =       2045
run
# Memo[000] = 0000
# reg[0] = 0006,reg[1] = 002d,reg[2] = 0000,reg[3] = 0000,reg[4] = 0000,reg[5] = 0000,reg[6] = 0000,reg[7] = 0000
run
# Memo[02d] = 0000
# reg[0] = 0006,reg[1] = 002d,reg[2] = 0000,reg[3] = 0000,reg[4] = 0000,reg[5] = 0000,reg[6] = 0000,reg[7] = 0000
run
# Memo[02d] = 0000
# reg[0] = 0006,reg[1] = 002d,reg[2] = 0000,reg[3] = 0000,reg[4] = 002d,reg[5] = 0000,reg[6] = 0000,reg[7] = 0000
run
# Memo[7fe] = 0000
# reg[0] = 0006,reg[1] = 002d,reg[2] = 0000,reg[3] = 0000,reg[4] = 002d,reg[5] = 0000,reg[6] = 0000,reg[7] = 0000
# POP SP =       2046
run
# Memo[7ff] = 002f
# reg[0] = 0006,reg[1] = 002d,reg[2] = 0000,reg[3] = 0000,reg[4] = 002d,reg[5] = 0000,reg[6] = 0000,reg[7] = 0000
# POP SP =       2047
run
# Memo[000] = 0000
# reg[0] = 0006,reg[1] = 002d,reg[2] = 0000,reg[3] = 0000,reg[4] = 002d,reg[5] = 0000,reg[6] = 0000,reg[7] = 0000
run
# Memo[000] = 0000
# reg[0] = 0006,reg[1] = 002d,reg[2] = 0000,reg[3] = 0000,reg[4] = 002d,reg[5] = 0000,reg[6] = 0000,reg[7] = 0000
run
# Memo[00c] = 0000
# reg[0] = 0006,reg[1] = 002d,reg[2] = 0000,reg[3] = 0000,reg[4] = 002d,reg[5] = 0000,reg[6] = 0000,reg[7] = 0000
run
# Memo[000] = 0000
# reg[0] = 000c,reg[1] = 002d,reg[2] = 0000,reg[3] = 0000,reg[4] = 002d,reg[5] = 0000,reg[6] = 0000,reg[7] = 0000
run
# Memo[024] = 0000
# reg[0] = 000c,reg[1] = 002d,reg[2] = 0000,reg[3] = 0000,reg[4] = 002d,reg[5] = 0000,reg[6] = 0000,reg[7] = 0000
run
# Memo[000] = 0000
# reg[0] = 000c,reg[1] = 002d,reg[2] = 0000,reg[3] = 0000,reg[4] = 002d,reg[5] = 0000,reg[6] = 0000,reg[7] = 0024
run
# Memo[000] = 0000
# reg[0] = 000c,reg[1] = 002d,reg[2] = 0000,reg[3] = 0000,reg[4] = 002d,reg[5] = 0000,reg[6] = 0000,reg[7] = 0024
run
# Memo[050] = 0000
# reg[0] = 000c,reg[1] = 002d,reg[2] = 0000,reg[3] = 0000,reg[4] = 002d,reg[5] = 0000,reg[6] = 0000,reg[7] = 0024
run
# Memo[001] = 0000
# reg[0] = 000c,reg[1] = 0050,reg[2] = 0000,reg[3] = 0000,reg[4] = 002d,reg[5] = 0000,reg[6] = 0000,reg[7] = 0024
run
# Memo[001] = 0000
# reg[0] = 000c,reg[1] = 0050,reg[2] = 0001,reg[3] = 0000,reg[4] = 002d,reg[5] = 0000,reg[6] = 0000,reg[7] = 0024
quit -sim
# End time: 12:48:28 on Jan 01,2023, Elapsed time: 0:14:17
# Errors: 0, Warnings: 1
# Compile of controlUnit.v was successful.
do simulation.do
# vsim -gui work.controllerTB 
# Start time: 12:48:44 on Jan 01,2023
# Loading work.controllerTB
# Loading work.Controller
# Loading work.IntructionMemory
# Loading work.DataMemory
# Loading work.Processor
# Loading work.PC
# Loading work.FDBuffer
# Loading work.hazardDetectionUnit
# Loading work.regfile
# Loading work.ControlUnit
# Loading work.DEBuffer
# Loading work.ForwardingUnit
# Loading work.ALU
# Loading work.EMBuffer
# Loading work.stackPointer
# Loading work.MWBuffer
# Loading work.WriteBack
run
# Memo[000] = 0000
# reg[0] = 0000,reg[1] = 0000,reg[2] = 0000,reg[3] = 0000,reg[4] = 0000,reg[5] = 0000,reg[6] = 0000,reg[7] = 0000
quit -sim
