transcript
vsim -gui work.controllerTB
# vsim -gui work.controllerTB 
# Start time: 20:40:53 on Dec 26,2022
# Loading work.controllerTB
# Loading work.Controller
# Loading work.IntructionMemory
# Loading work.DataMemory
# Loading work.Processor
# Loading work.PC
# Loading work.FDBuffer
# Loading work.hazardDetectionUnit
# Loading work.regfile
# Loading work.ControlUnit
# Loading work.DEBuffer
# Loading work.ForwardingUnit
# Loading work.ALU
# Loading work.EMBuffer
# Loading work.stackPointer
# Loading work.MWBuffer
# Loading work.WriteBack
add wave -position end sim:/controllerTB/controller/processor/*
run
# reg[0] =     0,reg[1] =     0,reg[2] =     0,reg[3] =     0,reg[4] =     0,reg[5] =     0,reg[6] =     0,reg[7] =     0
run
# Memo[   x] =     x
run
run
# reg[0] =     0,reg[1] =     0,reg[2] =     0,reg[3] =     0,reg[4] =     0,reg[5] =     0,reg[6] =     0,reg[7] =     0
run
# Memo[   0] =     0
run
run
# reg[0] =     0,reg[1] =     0,reg[2] =     0,reg[3] =     0,reg[4] =     0,reg[5] =     0,reg[6] =     0,reg[7] =     0
run
# Memo[   0] =     0
run
# reg[0] =     0,reg[1] =     0,reg[2] =     0,reg[3] =     0,reg[4] =     0,reg[5] =     0,reg[6] =     0,reg[7] =     0
run
# Memo[   0] =     0
run
run
# reg[0] =     0,reg[1] =     0,reg[2] =     0,reg[3] =     0,reg[4] =     0,reg[5] =     0,reg[6] =     0,reg[7] =     0
run
# Memo[2047] =     0
run
# reg[0] = 65535,reg[1] =     0,reg[2] =     0,reg[3] =     0,reg[4] =     0,reg[5] =     0,reg[6] =     0,reg[7] =     0
run
# Memo[2047] =     0
run
run
# reg[0] = 65535,reg[1] = 65535,reg[2] =     0,reg[3] =     0,reg[4] =     0,reg[5] =     0,reg[6] =     0,reg[7] =     0
run
# Memo[   0] =     0
run
# reg[0] = 65535,reg[1] = 65535,reg[2] =     0,reg[3] =     0,reg[4] =     0,reg[5] =     0,reg[6] =     0,reg[7] =     0
run
# Memo[2046] =     0
run
run
# reg[0] = 65535,reg[1] = 65534,reg[2] =     0,reg[3] =     0,reg[4] =     0,reg[5] =     0,reg[6] =     0,reg[7] =     0
run
# Memo[   0] =     0
run
# reg[0] = 65535,reg[1] = 65534,reg[2] =     0,reg[3] =     0,reg[4] =     0,reg[5] =     0,reg[6] =     0,reg[7] =     0
run
# Memo[   6] =     0
run
run
# reg[0] = 65535,reg[1] = 65534,reg[2] =     0,reg[3] =     0,reg[4] =     0,reg[5] =     6,reg[6] =     0,reg[7] =     0
run
# Memo[   0] =     0
run
# reg[0] = 65535,reg[1] = 65534,reg[2] =     0,reg[3] =     0,reg[4] =     0,reg[5] =     6,reg[6] =     0,reg[7] =     0
run
# Memo[   2] =     0
run
run
# reg[0] = 65535,reg[1] = 65534,reg[2] =     0,reg[3] =     0,reg[4] =     0,reg[5] =     6,reg[6] =     2,reg[7] =     0
run
# Memo[   4] =     0
run
# reg[0] = 65535,reg[1] = 65534,reg[2] =     0,reg[3] =     0,reg[4] =     0,reg[5] =     4,reg[6] =     2,reg[7] =     0
run
# Memo[   4] =     0
run
run
# reg[0] = 65535,reg[1] = 65534,reg[2] =     0,reg[3] =     4,reg[4] =     0,reg[5] =     4,reg[6] =     2,reg[7] =     0
run
# Memo[2047] =     0
# PUSH SP =       2046
run
# reg[0] = 65535,reg[1] = 65534,reg[2] =     0,reg[3] =     4,reg[4] =     0,reg[5] =     4,reg[6] =     2,reg[7] =     0
run
# Memo[2047] =     0
# POP SP =       2047
quit -sim
# End time: 20:59:04 on Dec 26,2022, Elapsed time: 0:18:11
# Errors: 0, Warnings: 1
# Compile of controllerTB.v was successful.
vsim -gui work.controllerTB
# vsim -gui work.controllerTB 
# Start time: 21:00:33 on Dec 26,2022
# Loading work.controllerTB
# Loading work.Controller
# Loading work.IntructionMemory
# Loading work.DataMemory
# Loading work.Processor
# Loading work.PC
# Loading work.FDBuffer
# Loading work.hazardDetectionUnit
# Loading work.regfile
# Loading work.ControlUnit
# Loading work.DEBuffer
# Loading work.ForwardingUnit
# Loading work.ALU
# Loading work.EMBuffer
# Loading work.stackPointer
# Loading work.MWBuffer
# Loading work.WriteBack
add wave -position end sim:/controllerTB/controller/processor/*
run
# reg[0] =     0,reg[1] =     0,reg[2] =     0,reg[3] =     0,reg[4] =     0,reg[5] =     0,reg[6] =     0,reg[7] =     0
run
# Memo[   x] =     x
run
run
# reg[0] =     0,reg[1] =     0,reg[2] =     0,reg[3] =     0,reg[4] =     0,reg[5] =     0,reg[6] =     0,reg[7] =     0
run
# Memo[   0] =     0
run
run
# reg[0] =     0,reg[1] =     0,reg[2] =     0,reg[3] =     0,reg[4] =     0,reg[5] =     0,reg[6] =     0,reg[7] =     0
run
# Memo[   0] =     0
run
# reg[0] =     0,reg[1] =     0,reg[2] =     0,reg[3] =     0,reg[4] =     0,reg[5] =     0,reg[6] =     0,reg[7] =     0
run
# Memo[   0] =     0
run
run
# reg[0] =     0,reg[1] =     0,reg[2] =     0,reg[3] =     0,reg[4] =     0,reg[5] =     0,reg[6] =     0,reg[7] =     0
run
# Memo[2047] =     0
run
# reg[0] = 65535,reg[1] =     0,reg[2] =     0,reg[3] =     0,reg[4] =     0,reg[5] =     0,reg[6] =     0,reg[7] =     0
run
# Memo[2047] =     0
quit -sim
# End time: 21:04:39 on Dec 26,2022, Elapsed time: 0:04:06
# Errors: 0, Warnings: 2
vsim -gui work.controllerTB
# vsim -gui work.controllerTB 
# Start time: 21:04:49 on Dec 26,2022
# Loading work.controllerTB
# Loading work.Controller
# Loading work.IntructionMemory
# Loading work.DataMemory
# Loading work.Processor
# Loading work.PC
# Loading work.FDBuffer
# Loading work.hazardDetectionUnit
# Loading work.regfile
# Loading work.ControlUnit
# Loading work.DEBuffer
# Loading work.ForwardingUnit
# Loading work.ALU
# Loading work.EMBuffer
# Loading work.stackPointer
# Loading work.MWBuffer
# Loading work.WriteBack
add wave -position end sim:/controllerTB/controller/processor/*
run
# reg[0] =     0,reg[1] =     0,reg[2] =     0,reg[3] =     0,reg[4] =     0,reg[5] =     0,reg[6] =     0,reg[7] =     0
run
# Memo[   x] =     x
run
run
# reg[0] =     0,reg[1] =     0,reg[2] =     0,reg[3] =     0,reg[4] =     0,reg[5] =     0,reg[6] =     0,reg[7] =     0
run
# Memo[   0] =     0
run
run
# reg[0] =     0,reg[1] =     0,reg[2] =     0,reg[3] =     0,reg[4] =     0,reg[5] =     0,reg[6] =     0,reg[7] =     0
run
# Memo[   0] =     0
run
# reg[0] =     0,reg[1] =     0,reg[2] =     0,reg[3] =     0,reg[4] =     0,reg[5] =     0,reg[6] =     0,reg[7] =     0
run
# Memo[   0] =     0
run
run
# reg[0] =     0,reg[1] =     0,reg[2] =     0,reg[3] =     0,reg[4] =     0,reg[5] =     0,reg[6] =     0,reg[7] =     0
run
# Memo[2047] =     0
run
# reg[0] = 65535,reg[1] =     0,reg[2] =     0,reg[3] =     0,reg[4] =     0,reg[5] =     0,reg[6] =     0,reg[7] =     0
run
# Memo[2047] =     0
run
run
# reg[0] = 65535,reg[1] = 65535,reg[2] =     0,reg[3] =     0,reg[4] =     0,reg[5] =     0,reg[6] =     0,reg[7] =     0
run
# Memo[2047] =     0
# PUSH SP =       2046
run
# reg[0] = 65535,reg[1] = 65535,reg[2] =     0,reg[3] =     0,reg[4] =     0,reg[5] =     0,reg[6] =     0,reg[7] =     0
quit -sim
# End time: 21:20:24 on Dec 26,2022, Elapsed time: 0:15:35
# Errors: 0, Warnings: 1
# Compile of ALU.v was successful.
# Compile of controlUnit.v was successful.
# Compile of defines.v was successful.
# Compile of forwarding-unit.v was successful.
# Compile of pc.v was successful.
# Compile of processor.v failed with 1 errors.
# Compile of regfile.v was successful.
# Compile of writeBack.v was successful.
# Compile of controller.v was successful.
# Compile of dataMemory.v was successful.
# Compile of instructionMemory.v was successful.
# Compile of controllerTB.v was successful.
# Compile of DEBuffer.v was successful.
# Compile of stackPointer.v was successful.
# Compile of EMBuffer.v failed with 4 errors.
# Compile of FDBuffer.v was successful.
# Compile of MWBuffer.v was successful.
# Compile of hazardDetectionUnit.v was successful.
# 18 compiles, 2 failed with 5 errors.
# Compile of EMBuffer.v was successful.
# Compile of processor.v was successful.
vsim -gui work.controllerTB
# vsim -gui work.controllerTB 
# Start time: 21:25:02 on Dec 26,2022
# Loading work.controllerTB
# Loading work.Controller
# Loading work.IntructionMemory
# Loading work.DataMemory
# Loading work.Processor
# Loading work.PC
# Loading work.FDBuffer
# Loading work.hazardDetectionUnit
# Loading work.regfile
# Loading work.ControlUnit
# Loading work.DEBuffer
# Loading work.ForwardingUnit
# Loading work.ALU
# Loading work.EMBuffer
# Loading work.stackPointer
# Loading work.MWBuffer
# Loading work.WriteBack
add wave -position end sim:/controllerTB/controller/processor/*
run
# reg[0] =     0,reg[1] =     0,reg[2] =     0,reg[3] =     0,reg[4] =     0,reg[5] =     0,reg[6] =     0,reg[7] =     0
run
# Memo[   x] =     x
run
run
# reg[0] =     0,reg[1] =     0,reg[2] =     0,reg[3] =     0,reg[4] =     0,reg[5] =     0,reg[6] =     0,reg[7] =     0
run
# Memo[   0] =     0
run
run
# reg[0] =     0,reg[1] =     0,reg[2] =     0,reg[3] =     0,reg[4] =     0,reg[5] =     0,reg[6] =     0,reg[7] =     0
run
# Memo[   0] =     0
run
# reg[0] =     0,reg[1] =     0,reg[2] =     0,reg[3] =     0,reg[4] =     0,reg[5] =     0,reg[6] =     0,reg[7] =     0
run
# Memo[   0] =     0
run
run
# reg[0] =     0,reg[1] =     0,reg[2] =     0,reg[3] =     0,reg[4] =     0,reg[5] =     0,reg[6] =     0,reg[7] =     0
run
# Memo[2047] =     0
run
# reg[0] = 65535,reg[1] =     0,reg[2] =     0,reg[3] =     0,reg[4] =     0,reg[5] =     0,reg[6] =     0,reg[7] =     0
run
# Memo[2047] =     0
run
run
# reg[0] = 65535,reg[1] = 65535,reg[2] =     0,reg[3] =     0,reg[4] =     0,reg[5] =     0,reg[6] =     0,reg[7] =     0
quit -sim
# End time: 21:25:50 on Dec 26,2022, Elapsed time: 0:00:48
# Errors: 0, Warnings: 4
# Compile of controlUnit.v was successful.
# Compile of processor.v was successful.
vsim -gui work.controllerTB
# vsim -gui work.controllerTB 
# Start time: 21:28:58 on Dec 26,2022
# Loading work.controllerTB
# Loading work.Controller
# Loading work.IntructionMemory
# Loading work.DataMemory
# Loading work.Processor
# Loading work.PC
# Loading work.FDBuffer
# Loading work.hazardDetectionUnit
# Loading work.regfile
# Loading work.ControlUnit
# Loading work.DEBuffer
# Loading work.ForwardingUnit
# Loading work.ALU
# Loading work.EMBuffer
# Loading work.stackPointer
# Loading work.MWBuffer
# Loading work.WriteBack
add wave -position end sim:/controllerTB/controller/processor/*
run
# reg[0] =     0,reg[1] =     0,reg[2] =     0,reg[3] =     0,reg[4] =     0,reg[5] =     0,reg[6] =     0,reg[7] =     0
run
# Memo[   x] =     x
run
run
# reg[0] =     0,reg[1] =     0,reg[2] =     0,reg[3] =     0,reg[4] =     0,reg[5] =     0,reg[6] =     0,reg[7] =     0
run
# Memo[   0] =     0
run
run
# reg[0] =     0,reg[1] =     0,reg[2] =     0,reg[3] =     0,reg[4] =     0,reg[5] =     0,reg[6] =     0,reg[7] =     0
run
# Memo[   0] =     0
run
# reg[0] =     0,reg[1] =     0,reg[2] =     0,reg[3] =     0,reg[4] =     0,reg[5] =     0,reg[6] =     0,reg[7] =     0
run
# Memo[   0] =     0
run
run
# reg[0] =     0,reg[1] =     0,reg[2] =     0,reg[3] =     0,reg[4] =     0,reg[5] =     0,reg[6] =     0,reg[7] =     0
run
# Memo[2047] =     0
run
# reg[0] = 65535,reg[1] =     0,reg[2] =     0,reg[3] =     0,reg[4] =     0,reg[5] =     0,reg[6] =     0,reg[7] =     0
run
# Memo[2047] =     0
run
run
# reg[0] = 65535,reg[1] = 65535,reg[2] =     0,reg[3] =     0,reg[4] =     0,reg[5] =     0,reg[6] =     0,reg[7] =     0
quit -sim
# End time: 21:31:11 on Dec 26,2022, Elapsed time: 0:02:13
# Errors: 0, Warnings: 3
# Compile of dataMemory.v was successful.
vsim -gui work.controllerTB
# vsim -gui work.controllerTB 
# Start time: 21:31:40 on Dec 26,2022
# Loading work.controllerTB
# Loading work.Controller
# Loading work.IntructionMemory
# Loading work.DataMemory
# Loading work.Processor
# Loading work.PC
# Loading work.FDBuffer
# Loading work.hazardDetectionUnit
# Loading work.regfile
# Loading work.ControlUnit
# Loading work.DEBuffer
# Loading work.ForwardingUnit
# Loading work.ALU
# Loading work.EMBuffer
# Loading work.stackPointer
# Loading work.MWBuffer
# Loading work.WriteBack
run
# Memo[   x] =     x
# reg[0] =     0,reg[1] =     0,reg[2] =     0,reg[3] =     0,reg[4] =     0,reg[5] =     0,reg[6] =     0,reg[7] =     0
run
run
restart -f
# ** Note: (vsim-12125) Error and warning message counts have been reset to '0' because of 'restart'.
add wave -position end sim:/controllerTB/controller/processor/*
run
# Memo[   x] =     x
# reg[0] =     0,reg[1] =     0,reg[2] =     0,reg[3] =     0,reg[4] =     0,reg[5] =     0,reg[6] =     0,reg[7] =     0
run
run
run
# Memo[   0] =     0
# reg[0] =     0,reg[1] =     0,reg[2] =     0,reg[3] =     0,reg[4] =     0,reg[5] =     0,reg[6] =     0,reg[7] =     0
run
run
run
# Memo[   0] =     0
# reg[0] =     0,reg[1] =     0,reg[2] =     0,reg[3] =     0,reg[4] =     0,reg[5] =     0,reg[6] =     0,reg[7] =     0
run
run
# Memo[   0] =     0
# reg[0] =     0,reg[1] =     0,reg[2] =     0,reg[3] =     0,reg[4] =     0,reg[5] =     0,reg[6] =     0,reg[7] =     0
run
run
run
# Memo[2047] =     0
# reg[0] =     0,reg[1] =     0,reg[2] =     0,reg[3] =     0,reg[4] =     0,reg[5] =     0,reg[6] =     0,reg[7] =     0
run
run
# Memo[2047] =     0
# reg[0] = 65535,reg[1] =     0,reg[2] =     0,reg[3] =     0,reg[4] =     0,reg[5] =     0,reg[6] =     0,reg[7] =     0
run
run
run
# Memo[2047] = 65535
# reg[0] = 65535,reg[1] = 65535,reg[2] =     0,reg[3] =     0,reg[4] =     0,reg[5] =     0,reg[6] =     0,reg[7] =     0
run
# PUSH SP =       2046
run
# Memo[   0] =     0
# reg[0] = 65535,reg[1] = 65535,reg[2] =     0,reg[3] =     0,reg[4] =     0,reg[5] =     0,reg[6] =     0,reg[7] =     0
run
run
run
# Memo[2046] =     0
# reg[0] = 65535,reg[1] = 65535,reg[2] =     0,reg[3] =     0,reg[4] =     0,reg[5] =     0,reg[6] =     0,reg[7] =     0
run
run
# Memo[   0] =     0
# reg[0] = 65535,reg[1] = 65534,reg[2] =     0,reg[3] =     0,reg[4] =     0,reg[5] =     0,reg[6] =     0,reg[7] =     0
run
run
run
# Memo[   6] =     0
# reg[0] = 65535,reg[1] = 65534,reg[2] =     0,reg[3] =     0,reg[4] =     0,reg[5] =     0,reg[6] =     0,reg[7] =     0
run
run
# Memo[   0] =     0
# reg[0] = 65535,reg[1] = 65534,reg[2] =     0,reg[3] =     0,reg[4] =     0,reg[5] =     6,reg[6] =     0,reg[7] =     0
run
run
run
# Memo[   2] =     0
# reg[0] = 65535,reg[1] = 65534,reg[2] =     0,reg[3] =     0,reg[4] =     0,reg[5] =     6,reg[6] =     0,reg[7] =     0
run
run
# Memo[   4] =     0
# reg[0] = 65535,reg[1] = 65534,reg[2] =     0,reg[3] =     0,reg[4] =     0,reg[5] =     6,reg[6] =     2,reg[7] =     0
run
run
run
# Memo[   4] =     0
# reg[0] = 65535,reg[1] = 65534,reg[2] =     0,reg[3] =     0,reg[4] =     0,reg[5] =     4,reg[6] =     2,reg[7] =     0
run
run
# Memo[2047] = 65535
# reg[0] = 65535,reg[1] = 65534,reg[2] =     0,reg[3] =     4,reg[4] =     0,reg[5] =     4,reg[6] =     2,reg[7] =     0
run
# POP SP =       2047
run
run
# Memo[   4] = 65535
# reg[0] = 65535,reg[1] = 65534,reg[2] =     0,reg[3] =     4,reg[4] =     0,reg[5] =     4,reg[6] =     2,reg[7] = 65535
run
run
# Memo[   4] = 65535
# reg[0] = 65535,reg[1] = 65534,reg[2] =     0,reg[3] =     4,reg[4] =     0,reg[5] =     4,reg[6] =     2,reg[7] = 65535
run
run
run
# Memo[   0] =     0
# reg[0] = 65535,reg[1] = 65534,reg[2] = 65535,reg[3] =     4,reg[4] =     0,reg[5] =     4,reg[6] =     2,reg[7] = 65535
run
run
# Memo[  52] =     0
# reg[0] = 65535,reg[1] = 65534,reg[2] = 65535,reg[3] =     4,reg[4] =     0,reg[5] =     4,reg[6] =     2,reg[7] = 65535
run
run
run
# Memo[2047] =    49
# reg[0] = 65535,reg[1] = 65534,reg[2] = 65535,reg[3] =     4,reg[4] =    52,reg[5] =     4,reg[6] =     2,reg[7] = 65535
run
# PUSH SP =       2046
run
# Memo[2046] =     0
# reg[0] = 65535,reg[1] = 65534,reg[2] = 65535,reg[3] =     4,reg[4] =    52,reg[5] =     4,reg[6] =     2,reg[7] = 65535
run
# PUSH SP =       2045
quit -sim
# End time: 22:03:00 on Dec 26,2022, Elapsed time: 0:31:20
# Errors: 0, Warnings: 1
# Compile of controlUnit.v was successful.
# Compile of ALU.v was successful.
# Compile of controlUnit.v was successful.
# Compile of defines.v was successful.
# Compile of forwarding-unit.v was successful.
# Compile of pc.v was successful.
# Compile of processor.v was successful.
# Compile of regfile.v was successful.
# Compile of writeBack.v was successful.
# Compile of controller.v was successful.
# Compile of dataMemory.v was successful.
# Compile of instructionMemory.v was successful.
# Compile of controllerTB.v was successful.
# Compile of DEBuffer.v was successful.
# Compile of stackPointer.v was successful.
# Compile of EMBuffer.v was successful.
# Compile of FDBuffer.v was successful.
# Compile of MWBuffer.v was successful.
# Compile of hazardDetectionUnit.v was successful.
# 18 compiles, 0 failed with no errors.
vsim -gui work.controllerTB
# vsim -gui work.controllerTB 
# Start time: 22:05:31 on Dec 26,2022
# Loading work.controllerTB
# Loading work.Controller
# Loading work.IntructionMemory
# Loading work.DataMemory
# Loading work.Processor
# Loading work.PC
# Loading work.FDBuffer
# Loading work.hazardDetectionUnit
# Loading work.regfile
# Loading work.ControlUnit
# Loading work.DEBuffer
# Loading work.ForwardingUnit
# Loading work.ALU
# Loading work.EMBuffer
# Loading work.stackPointer
# Loading work.MWBuffer
# Loading work.WriteBack
add wave -position end sim:/controllerTB/controller/processor/*
run
# Memo[   x] =     x
# reg[0] =     0,reg[1] =     0,reg[2] =     0,reg[3] =     0,reg[4] =     0,reg[5] =     0,reg[6] =     0,reg[7] =     0
run
run
run
# Memo[   0] =     0
# reg[0] =     0,reg[1] =     0,reg[2] =     0,reg[3] =     0,reg[4] =     0,reg[5] =     0,reg[6] =     0,reg[7] =     0
run
run
run
# Memo[   0] =     0
# reg[0] =     0,reg[1] =     0,reg[2] =     0,reg[3] =     0,reg[4] =     0,reg[5] =     0,reg[6] =     0,reg[7] =     0
run
run
# Memo[   0] =     0
# reg[0] =     0,reg[1] =     0,reg[2] =     0,reg[3] =     0,reg[4] =     0,reg[5] =     0,reg[6] =     0,reg[7] =     0
run
run
run
# Memo[2047] =     0
# reg[0] =     0,reg[1] =     0,reg[2] =     0,reg[3] =     0,reg[4] =     0,reg[5] =     0,reg[6] =     0,reg[7] =     0
run
run
# Memo[2047] =     0
# reg[0] = 65535,reg[1] =     0,reg[2] =     0,reg[3] =     0,reg[4] =     0,reg[5] =     0,reg[6] =     0,reg[7] =     0
run
run
run
# Memo[2047] = 65535
# reg[0] = 65535,reg[1] = 65535,reg[2] =     0,reg[3] =     0,reg[4] =     0,reg[5] =     0,reg[6] =     0,reg[7] =     0
run
# PUSH SP =       2046
run
# Memo[   0] =     0
# reg[0] = 65535,reg[1] = 65535,reg[2] =     0,reg[3] =     0,reg[4] =     0,reg[5] =     0,reg[6] =     0,reg[7] =     0
run
run
run
# Memo[2046] =     0
# reg[0] = 65535,reg[1] = 65535,reg[2] =     0,reg[3] =     0,reg[4] =     0,reg[5] =     0,reg[6] =     0,reg[7] =     0
run
run
# Memo[   0] =     0
# reg[0] = 65535,reg[1] = 65534,reg[2] =     0,reg[3] =     0,reg[4] =     0,reg[5] =     0,reg[6] =     0,reg[7] =     0
run
run
run
# Memo[   6] =     0
# reg[0] = 65535,reg[1] = 65534,reg[2] =     0,reg[3] =     0,reg[4] =     0,reg[5] =     0,reg[6] =     0,reg[7] =     0
run
run
# Memo[   0] =     0
# reg[0] = 65535,reg[1] = 65534,reg[2] =     0,reg[3] =     0,reg[4] =     0,reg[5] =     6,reg[6] =     0,reg[7] =     0
run
run
run
# Memo[   2] =     0
# reg[0] = 65535,reg[1] = 65534,reg[2] =     0,reg[3] =     0,reg[4] =     0,reg[5] =     6,reg[6] =     0,reg[7] =     0
run
run
# Memo[   4] =     0
# reg[0] = 65535,reg[1] = 65534,reg[2] =     0,reg[3] =     0,reg[4] =     0,reg[5] =     6,reg[6] =     2,reg[7] =     0
run
run
run
# Memo[   4] =     0
# reg[0] = 65535,reg[1] = 65534,reg[2] =     0,reg[3] =     0,reg[4] =     0,reg[5] =     4,reg[6] =     2,reg[7] =     0
run
run
# Memo[2047] = 65535
# reg[0] = 65535,reg[1] = 65534,reg[2] =     0,reg[3] =     4,reg[4] =     0,reg[5] =     4,reg[6] =     2,reg[7] =     0
run
# POP SP =       2047
run
run
# Memo[   4] = 65535
# reg[0] = 65535,reg[1] = 65534,reg[2] =     0,reg[3] =     4,reg[4] =     0,reg[5] =     4,reg[6] =     2,reg[7] = 65535
run
run
# Memo[   4] = 65535
# reg[0] = 65535,reg[1] = 65534,reg[2] =     0,reg[3] =     4,reg[4] =     0,reg[5] =     4,reg[6] =     2,reg[7] = 65535
run
run
run
# Memo[   0] =     0
# reg[0] = 65535,reg[1] = 65534,reg[2] = 65535,reg[3] =     4,reg[4] =     0,reg[5] =     4,reg[6] =     2,reg[7] = 65535
run
run
# Memo[  52] =     0
# reg[0] = 65535,reg[1] = 65534,reg[2] = 65535,reg[3] =     4,reg[4] =     0,reg[5] =     4,reg[6] =     2,reg[7] = 65535
run
run
run
# Memo[2047] =    49
# reg[0] = 65535,reg[1] = 65534,reg[2] = 65535,reg[3] =     4,reg[4] =    52,reg[5] =     4,reg[6] =     2,reg[7] = 65535
run
# PUSH SP =       2046
run
# Memo[2046] =     0
# reg[0] = 65535,reg[1] = 65534,reg[2] = 65535,reg[3] =     4,reg[4] =    52,reg[5] =     4,reg[6] =     2,reg[7] = 65535
run
# PUSH SP =       2045
run
run
# Memo[   0] =     0
# reg[0] = 65535,reg[1] = 65534,reg[2] = 65535,reg[3] =     4,reg[4] =    52,reg[5] =     4,reg[6] =     2,reg[7] = 65535
run
run
# Memo[  51] =     0
# reg[0] = 65535,reg[1] = 65534,reg[2] = 65535,reg[3] =     4,reg[4] =    52,reg[5] =     4,reg[6] =     2,reg[7] = 65535
run
run
run
# Memo[2046] =     0
# reg[0] = 65535,reg[1] = 65534,reg[2] = 65535,reg[3] =     4,reg[4] =    52,reg[5] =     4,reg[6] =     2,reg[7] =    51
run
# POP SP =       2046
run
# Memo[   0] =     0
# reg[0] = 65535,reg[1] = 65534,reg[2] = 65535,reg[3] =     4,reg[4] =    52,reg[5] =     4,reg[6] =     2,reg[7] =    51
run
run
quit -sim
# End time: 22:48:26 on Dec 26,2022, Elapsed time: 0:42:55
# Errors: 0, Warnings: 3
# Compile of controllerTB.v was successful.
# Compile of hazardDetectionUnit.v was successful.
vsim -gui work.controllerTB
# vsim -gui work.controllerTB 
# Start time: 22:55:31 on Dec 26,2022
# Loading work.controllerTB
# Loading work.Controller
# Loading work.IntructionMemory
# Loading work.DataMemory
# Loading work.Processor
# Loading work.PC
# Loading work.FDBuffer
# Loading work.hazardDetectionUnit
# Loading work.regfile
# Loading work.ControlUnit
# Loading work.DEBuffer
# Loading work.ForwardingUnit
# Loading work.ALU
# Loading work.EMBuffer
# Loading work.stackPointer
# Loading work.MWBuffer
# Loading work.WriteBack
add wave -position end sim:/controllerTB/controller/processor/*
run
# Memo[   x] =     x
# reg[0] =     0,reg[1] =     0,reg[2] =     0,reg[3] =     0,reg[4] =     0,reg[5] =     0,reg[6] =     0,reg[7] =     0
run
run
run
# Memo[   0] =     0
# reg[0] =     0,reg[1] =     0,reg[2] =     0,reg[3] =     0,reg[4] =     0,reg[5] =     0,reg[6] =     0,reg[7] =     0
run
run
run
# Memo[   0] =     0
# reg[0] =     0,reg[1] =     0,reg[2] =     0,reg[3] =     0,reg[4] =     0,reg[5] =     0,reg[6] =     0,reg[7] =     0
run
run
# Memo[   0] =     0
# reg[0] =     0,reg[1] =     0,reg[2] =     0,reg[3] =     0,reg[4] =     0,reg[5] =     0,reg[6] =     0,reg[7] =     0
run
run
run
# Memo[2047] =     0
# reg[0] =     0,reg[1] =     0,reg[2] =     0,reg[3] =     0,reg[4] =     0,reg[5] =     0,reg[6] =     0,reg[7] =     0
run
run
# Memo[2047] =     0
# reg[0] = 65535,reg[1] =     0,reg[2] =     0,reg[3] =     0,reg[4] =     0,reg[5] =     0,reg[6] =     0,reg[7] =     0
run
run
run
# Memo[2047] = 65535
# reg[0] = 65535,reg[1] = 65535,reg[2] =     0,reg[3] =     0,reg[4] =     0,reg[5] =     0,reg[6] =     0,reg[7] =     0
run
# PUSH SP =       2046
run
# Memo[   0] =     0
# reg[0] = 65535,reg[1] = 65535,reg[2] =     0,reg[3] =     0,reg[4] =     0,reg[5] =     0,reg[6] =     0,reg[7] =     0
run
run
run
# Memo[2046] =     0
# reg[0] = 65535,reg[1] = 65535,reg[2] =     0,reg[3] =     0,reg[4] =     0,reg[5] =     0,reg[6] =     0,reg[7] =     0
run
run
# Memo[   0] =     0
# reg[0] = 65535,reg[1] = 65534,reg[2] =     0,reg[3] =     0,reg[4] =     0,reg[5] =     0,reg[6] =     0,reg[7] =     0
run
run
run
# Memo[   6] =     0
# reg[0] = 65535,reg[1] = 65534,reg[2] =     0,reg[3] =     0,reg[4] =     0,reg[5] =     0,reg[6] =     0,reg[7] =     0
run
run
# Memo[   0] =     0
# reg[0] = 65535,reg[1] = 65534,reg[2] =     0,reg[3] =     0,reg[4] =     0,reg[5] =     6,reg[6] =     0,reg[7] =     0
run
run
run
# Memo[   2] =     0
# reg[0] = 65535,reg[1] = 65534,reg[2] =     0,reg[3] =     0,reg[4] =     0,reg[5] =     6,reg[6] =     0,reg[7] =     0
run
run
# Memo[   4] =     0
# reg[0] = 65535,reg[1] = 65534,reg[2] =     0,reg[3] =     0,reg[4] =     0,reg[5] =     6,reg[6] =     2,reg[7] =     0
run
run
run
# Memo[   4] =     0
# reg[0] = 65535,reg[1] = 65534,reg[2] =     0,reg[3] =     0,reg[4] =     0,reg[5] =     4,reg[6] =     2,reg[7] =     0
run
run
# Memo[2047] = 65535
# reg[0] = 65535,reg[1] = 65534,reg[2] =     0,reg[3] =     4,reg[4] =     0,reg[5] =     4,reg[6] =     2,reg[7] =     0
run
# POP SP =       2047
run
run
# Memo[   4] = 65535
# reg[0] = 65535,reg[1] = 65534,reg[2] =     0,reg[3] =     4,reg[4] =     0,reg[5] =     4,reg[6] =     2,reg[7] = 65535
run
run
# Memo[   4] = 65535
# reg[0] = 65535,reg[1] = 65534,reg[2] =     0,reg[3] =     4,reg[4] =     0,reg[5] =     4,reg[6] =     2,reg[7] = 65535
run
run
run
# Memo[   0] =     0
# reg[0] = 65535,reg[1] = 65534,reg[2] = 65535,reg[3] =     4,reg[4] =     0,reg[5] =     4,reg[6] =     2,reg[7] = 65535
run
run
# Memo[  52] =     0
# reg[0] = 65535,reg[1] = 65534,reg[2] = 65535,reg[3] =     4,reg[4] =     0,reg[5] =     4,reg[6] =     2,reg[7] = 65535
run
run
run
# Memo[2047] =    49
# reg[0] = 65535,reg[1] = 65534,reg[2] = 65535,reg[3] =     4,reg[4] =    52,reg[5] =     4,reg[6] =     2,reg[7] = 65535
run
# PUSH SP =       2046
run
# Memo[2046] =     0
# reg[0] = 65535,reg[1] = 65534,reg[2] = 65535,reg[3] =     4,reg[4] =    52,reg[5] =     4,reg[6] =     2,reg[7] = 65535
run
# PUSH SP =       2045
run
run
# Memo[   0] =     0
# reg[0] = 65535,reg[1] = 65534,reg[2] = 65535,reg[3] =     4,reg[4] =    52,reg[5] =     4,reg[6] =     2,reg[7] = 65535
run
run
# Memo[  51] =     0
# reg[0] = 65535,reg[1] = 65534,reg[2] = 65535,reg[3] =     4,reg[4] =    52,reg[5] =     4,reg[6] =     2,reg[7] = 65535
run
run
run
# Memo[2046] =     0
# reg[0] = 65535,reg[1] = 65534,reg[2] = 65535,reg[3] =     4,reg[4] =    52,reg[5] =     4,reg[6] =     2,reg[7] =    51
run
# POP SP =       2046
run
# Memo[2047] =    49
# reg[0] = 65535,reg[1] = 65534,reg[2] = 65535,reg[3] =     4,reg[4] =    52,reg[5] =     4,reg[6] =     2,reg[7] =    51
run
# POP SP =       2047
run
run
# Memo[ 103] =     0
# reg[0] = 65535,reg[1] = 65534,reg[2] = 65535,reg[3] =     4,reg[4] =    52,reg[5] =     4,reg[6] =     2,reg[7] =    51
run
run
# Memo[ 155] =     0
# reg[0] = 65535,reg[1] = 65534,reg[2] = 65535,reg[3] =     4,reg[4] =    52,reg[5] =     4,reg[6] =     2,reg[7] =   103
run
run
run
# Memo[   0] =     0
# reg[0] = 65535,reg[1] = 65534,reg[2] = 65535,reg[3] =     4,reg[4] =    52,reg[5] =     4,reg[6] =     2,reg[7] =   155
run
run
# Memo[   0] =     0
# reg[0] =     0,reg[1] = 65534,reg[2] = 65535,reg[3] =     4,reg[4] =    52,reg[5] =     4,reg[6] =     2,reg[7] =   155
quit -sim
