transcript
# Compile of ALU.v was successful.
# Compile of controlUnit.v failed with 1 errors.
# Compile of defines.v was successful.
# Compile of forwarding-unit.v was successful.
# Compile of pc.v was successful.
# Compile of processor.v was successful.
# Compile of regfile.v was successful.
# Compile of writeBack.v was successful.
# Compile of controller.v was successful.
# Compile of dataMemory.v was successful.
# Compile of instructionMemory.v was successful.
# Compile of controllerTB.v was successful.
# Compile of DEBuffer.v was successful.
# Compile of stackPointer.v was successful.
# 14 compiles, 1 failed with 1 error.
# Compile of controlUnit.v was successful.
vsim -gui work.controllerTB
# vsim -gui work.controllerTB 
# Start time: 02:43:38 on Dec 25,2022
# Loading work.controllerTB
# Loading work.Controller
# Loading work.IntructionMemory
# Loading work.DataMemory
# Loading work.Processor
# Loading work.PC
# Loading work.ControlUnit
# Loading work.regfile
# Loading work.DEBuffer
# Loading work.ALU
# Loading work.stackPointer
# Loading work.WriteBack
add wave -position end sim:/controllerTB/controller/processor/*
run
# Memo[   x] =     x
# reg[0] =     0,reg[1] =     0,reg[2] =     0,reg[3] =     0,reg[4] =     0,reg[5] =     0,reg[6] =     0,reg[7] =     0
run
# Memo[   0] =     0
# reg[0] =     0,reg[1] =     0,reg[2] =     0,reg[3] =     0,reg[4] =     0,reg[5] =     0,reg[6] =     0,reg[7] =     0
run
# Memo[2047] =     0
# reg[0] = 65535,reg[1] =     0,reg[2] =     0,reg[3] =     0,reg[4] =     0,reg[5] =     0,reg[6] =     0,reg[7] =     0
run
# Memo[2047] =     0
# reg[0] = 65535,reg[1] = 65535,reg[2] =     0,reg[3] =     0,reg[4] =     0,reg[5] =     0,reg[6] =     0,reg[7] =     0
run
# Memo[   0] =     0
# reg[0] = 65535,reg[1] = 65535,reg[2] =     0,reg[3] =     0,reg[4] =     0,reg[5] =     0,reg[6] =     0,reg[7] =     0
run
# Memo[2046] =     0
# reg[0] = 65535,reg[1] = 65534,reg[2] =     0,reg[3] =     0,reg[4] =     0,reg[5] =     0,reg[6] =     0,reg[7] =     0
run
# Memo[   0] =     0
# reg[0] = 65535,reg[1] = 65534,reg[2] =     0,reg[3] =     0,reg[4] =     0,reg[5] =     0,reg[6] =     0,reg[7] =     0
run
# Memo[   6] =     0
# reg[0] = 65535,reg[1] = 65534,reg[2] =     0,reg[3] =     0,reg[4] =     0,reg[5] =     6,reg[6] =     0,reg[7] =     0
run
# Memo[   0] =     0
# reg[0] = 65535,reg[1] = 65534,reg[2] =     0,reg[3] =     0,reg[4] =     0,reg[5] =     6,reg[6] =     0,reg[7] =     0
run
# Memo[   2] =     0
# reg[0] = 65535,reg[1] = 65534,reg[2] =     0,reg[3] =     0,reg[4] =     0,reg[5] =     6,reg[6] =     2,reg[7] =     0
run
# Memo[   4] =     0
# reg[0] = 65535,reg[1] = 65534,reg[2] =     0,reg[3] =     0,reg[4] =     0,reg[5] =     4,reg[6] =     2,reg[7] =     0
run
# Memo[   4] =     0
# reg[0] = 65535,reg[1] = 65534,reg[2] =     0,reg[3] =     4,reg[4] =     0,reg[5] =     4,reg[6] =     2,reg[7] =     0
run
# Memo[2047] =     4
# reg[0] = 65535,reg[1] = 65534,reg[2] =     0,reg[3] =     4,reg[4] =     0,reg[5] =     4,reg[6] =     2,reg[7] =     0
run
# Memo[2047] =     4
# reg[0] = 65535,reg[1] = 65534,reg[2] =     0,reg[3] =     4,reg[4] =     0,reg[5] =     4,reg[6] =     2,reg[7] =     4
run
# Memo[   4] = 65535
# reg[0] = 65535,reg[1] = 65534,reg[2] =     0,reg[3] =     4,reg[4] =     0,reg[5] =     4,reg[6] =     2,reg[7] =     4
run
# Memo[   4] = 65535
# reg[0] = 65535,reg[1] = 65534,reg[2] = 65535,reg[3] =     4,reg[4] =     0,reg[5] =     4,reg[6] =     2,reg[7] =     4
run
# Memo[   0] =     0
# reg[0] = 65535,reg[1] = 65534,reg[2] = 65535,reg[3] =     4,reg[4] =     0,reg[5] =     4,reg[6] =     2,reg[7] =     4
run
# Memo[  52] =     0
# reg[0] = 65535,reg[1] = 65534,reg[2] = 65535,reg[3] =     4,reg[4] =    52,reg[5] =     4,reg[6] =     2,reg[7] =     4
run
# Memo[2047] =    49
# reg[0] = 65535,reg[1] = 65534,reg[2] = 65535,reg[3] =     4,reg[4] =    52,reg[5] =     4,reg[6] =     2,reg[7] =     4
run
# Memo[2046] =     0
# reg[0] = 65535,reg[1] = 65534,reg[2] = 65535,reg[3] =     4,reg[4] =    52,reg[5] =     4,reg[6] =     2,reg[7] =     4
run
# Memo[   0] =     0
# reg[0] = 65535,reg[1] = 65534,reg[2] = 65535,reg[3] =     4,reg[4] =    52,reg[5] =     4,reg[6] =     2,reg[7] =     4
run
# Memo[   0] =     0
# reg[0] = 65535,reg[1] = 65534,reg[2] = 65535,reg[3] =     4,reg[4] =    52,reg[5] =     4,reg[6] =     2,reg[7] =     4
quit -sim
# End time: 02:47:45 on Dec 25,2022, Elapsed time: 0:04:07
# Errors: 0, Warnings: 3
vsim -gui work.controllerTB
# vsim -gui work.controllerTB 
# Start time: 02:49:12 on Dec 25,2022
# Loading work.controllerTB
# Loading work.Controller
# Loading work.IntructionMemory
# Loading work.DataMemory
# Loading work.Processor
# Loading work.PC
# Loading work.ControlUnit
# Loading work.regfile
# Loading work.DEBuffer
# Loading work.ALU
# Loading work.stackPointer
# Loading work.WriteBack
quit -sim
# End time: 02:50:14 on Dec 25,2022, Elapsed time: 0:01:02
# Errors: 0, Warnings: 1
vsim -gui work.controllerTB
# vsim -gui work.controllerTB 
# Start time: 02:50:21 on Dec 25,2022
# Loading work.controllerTB
# Loading work.Controller
# Loading work.IntructionMemory
# Loading work.DataMemory
# Loading work.Processor
# Loading work.PC
# Loading work.ControlUnit
# Loading work.regfile
# Loading work.DEBuffer
# Loading work.ALU
# Loading work.stackPointer
# Loading work.WriteBack
add wave -position end sim:/controllerTB/controller/processor/*
run
# Memo[   x] =     x
# reg[0] =     0,reg[1] =     0,reg[2] =     0,reg[3] =     0,reg[4] =     0,reg[5] =     0,reg[6] =     0,reg[7] =     0
run
# Memo[   0] =     0
# reg[0] =     0,reg[1] =     0,reg[2] =     0,reg[3] =     0,reg[4] =     0,reg[5] =     0,reg[6] =     0,reg[7] =     0
run
# Memo[2047] =     0
# reg[0] = 65535,reg[1] =     0,reg[2] =     0,reg[3] =     0,reg[4] =     0,reg[5] =     0,reg[6] =     0,reg[7] =     0
run
# Memo[2047] =     0
# reg[0] = 65535,reg[1] = 65535,reg[2] =     0,reg[3] =     0,reg[4] =     0,reg[5] =     0,reg[6] =     0,reg[7] =     0
run
# Memo[   0] =     0
# reg[0] = 65535,reg[1] = 65535,reg[2] =     0,reg[3] =     0,reg[4] =     0,reg[5] =     0,reg[6] =     0,reg[7] =     0
run
# Memo[2046] =     0
# reg[0] = 65535,reg[1] = 65534,reg[2] =     0,reg[3] =     0,reg[4] =     0,reg[5] =     0,reg[6] =     0,reg[7] =     0
run
# Memo[   0] =     0
# reg[0] = 65535,reg[1] = 65534,reg[2] =     0,reg[3] =     0,reg[4] =     0,reg[5] =     0,reg[6] =     0,reg[7] =     0
run
# Memo[   6] =     0
# reg[0] = 65535,reg[1] = 65534,reg[2] =     0,reg[3] =     0,reg[4] =     0,reg[5] =     6,reg[6] =     0,reg[7] =     0
run
# Memo[   0] =     0
# reg[0] = 65535,reg[1] = 65534,reg[2] =     0,reg[3] =     0,reg[4] =     0,reg[5] =     6,reg[6] =     0,reg[7] =     0
run
# Memo[   2] =     0
# reg[0] = 65535,reg[1] = 65534,reg[2] =     0,reg[3] =     0,reg[4] =     0,reg[5] =     6,reg[6] =     2,reg[7] =     0
run
# Memo[   4] =     0
# reg[0] = 65535,reg[1] = 65534,reg[2] =     0,reg[3] =     0,reg[4] =     0,reg[5] =     4,reg[6] =     2,reg[7] =     0
run
# Memo[   4] =     0
# reg[0] = 65535,reg[1] = 65534,reg[2] =     0,reg[3] =     4,reg[4] =     0,reg[5] =     4,reg[6] =     2,reg[7] =     0
run
# Memo[2047] =     4
# reg[0] = 65535,reg[1] = 65534,reg[2] =     0,reg[3] =     4,reg[4] =     0,reg[5] =     4,reg[6] =     2,reg[7] =     0
run
# Memo[2047] =     4
# reg[0] = 65535,reg[1] = 65534,reg[2] =     0,reg[3] =     4,reg[4] =     0,reg[5] =     4,reg[6] =     2,reg[7] =     4
run
# Memo[   4] = 65535
# reg[0] = 65535,reg[1] = 65534,reg[2] =     0,reg[3] =     4,reg[4] =     0,reg[5] =     4,reg[6] =     2,reg[7] =     4
run
# Memo[   4] = 65535
# reg[0] = 65535,reg[1] = 65534,reg[2] = 65535,reg[3] =     4,reg[4] =     0,reg[5] =     4,reg[6] =     2,reg[7] =     4
run
# Memo[   0] =     0
# reg[0] = 65535,reg[1] = 65534,reg[2] = 65535,reg[3] =     4,reg[4] =     0,reg[5] =     4,reg[6] =     2,reg[7] =     4
run
# Memo[  52] =     0
# reg[0] = 65535,reg[1] = 65534,reg[2] = 65535,reg[3] =     4,reg[4] =    52,reg[5] =     4,reg[6] =     2,reg[7] =     4
run
# Memo[2047] =    49
# reg[0] = 65535,reg[1] = 65534,reg[2] = 65535,reg[3] =     4,reg[4] =    52,reg[5] =     4,reg[6] =     2,reg[7] =     4
run
# Memo[2046] =     0
# reg[0] = 65535,reg[1] = 65534,reg[2] = 65535,reg[3] =     4,reg[4] =    52,reg[5] =     4,reg[6] =     2,reg[7] =     4
run
# Memo[   0] =     0
# reg[0] = 65535,reg[1] = 65534,reg[2] = 65535,reg[3] =     4,reg[4] =    52,reg[5] =     4,reg[6] =     2,reg[7] =     4
run
# Memo[2046] =     0
# reg[0] = 65535,reg[1] = 65534,reg[2] = 65535,reg[3] =     4,reg[4] =    52,reg[5] =     4,reg[6] =     2,reg[7] =     4
quit -sim
# End time: 02:55:26 on Dec 25,2022, Elapsed time: 0:05:05
# Errors: 0, Warnings: 1
# Compile of ALU.v was successful.
# Compile of controlUnit.v was successful.
# Compile of defines.v was successful.
# Compile of forwarding-unit.v was successful.
# Compile of pc.v was successful.
# Compile of processor.v was successful.
# Compile of regfile.v was successful.
# Compile of writeBack.v was successful.
# Compile of controller.v was successful.
# Compile of dataMemory.v was successful.
# Compile of instructionMemory.v was successful.
vsim -gui work.controllerTB
# vsim -gui work.controllerTB 
# Start time: 02:56:34 on Dec 25,2022
# Loading work.controllerTB
# Loading work.Controller
# Loading work.IntructionMemory
# Loading work.DataMemory
# Loading work.Processor
# Loading work.PC
# Loading work.ControlUnit
# Loading work.regfile
# Loading work.DEBuffer
# Loading work.ALU
# Loading work.stackPointer
# Loading work.WriteBack
# Compile of controllerTB.v was successful.
# Compile of DEBuffer.v was successful.
# Compile of stackPointer.v was successful.
# 14 compiles, 0 failed with no errors.
add wave -position end sim:/controllerTB/controller/processor/*
run
# Memo[   x] =     x
# reg[0] =     0,reg[1] =     0,reg[2] =     0,reg[3] =     0,reg[4] =     0,reg[5] =     0,reg[6] =     0,reg[7] =     0
run
# Memo[   0] =     0
# reg[0] =     0,reg[1] =     0,reg[2] =     0,reg[3] =     0,reg[4] =     0,reg[5] =     0,reg[6] =     0,reg[7] =     0
run
# Memo[2047] =     0
# reg[0] = 65535,reg[1] =     0,reg[2] =     0,reg[3] =     0,reg[4] =     0,reg[5] =     0,reg[6] =     0,reg[7] =     0
run
# Memo[2047] =     0
# reg[0] = 65535,reg[1] = 65535,reg[2] =     0,reg[3] =     0,reg[4] =     0,reg[5] =     0,reg[6] =     0,reg[7] =     0
run
# Memo[   0] =     0
# reg[0] = 65535,reg[1] = 65535,reg[2] =     0,reg[3] =     0,reg[4] =     0,reg[5] =     0,reg[6] =     0,reg[7] =     0
run
# Memo[2046] =     0
# reg[0] = 65535,reg[1] = 65534,reg[2] =     0,reg[3] =     0,reg[4] =     0,reg[5] =     0,reg[6] =     0,reg[7] =     0
run
# Memo[   0] =     0
# reg[0] = 65535,reg[1] = 65534,reg[2] =     0,reg[3] =     0,reg[4] =     0,reg[5] =     0,reg[6] =     0,reg[7] =     0
run
# Memo[   6] =     0
# reg[0] = 65535,reg[1] = 65534,reg[2] =     0,reg[3] =     0,reg[4] =     0,reg[5] =     6,reg[6] =     0,reg[7] =     0
run
# Memo[   0] =     0
# reg[0] = 65535,reg[1] = 65534,reg[2] =     0,reg[3] =     0,reg[4] =     0,reg[5] =     6,reg[6] =     0,reg[7] =     0
run
# Memo[   2] =     0
# reg[0] = 65535,reg[1] = 65534,reg[2] =     0,reg[3] =     0,reg[4] =     0,reg[5] =     6,reg[6] =     2,reg[7] =     0
run
# Memo[   4] =     0
# reg[0] = 65535,reg[1] = 65534,reg[2] =     0,reg[3] =     0,reg[4] =     0,reg[5] =     4,reg[6] =     2,reg[7] =     0
run
# Memo[   4] =     0
# reg[0] = 65535,reg[1] = 65534,reg[2] =     0,reg[3] =     4,reg[4] =     0,reg[5] =     4,reg[6] =     2,reg[7] =     0
run
# Memo[2047] =     4
# reg[0] = 65535,reg[1] = 65534,reg[2] =     0,reg[3] =     4,reg[4] =     0,reg[5] =     4,reg[6] =     2,reg[7] =     0
run
# Memo[2047] =     4
# reg[0] = 65535,reg[1] = 65534,reg[2] =     0,reg[3] =     4,reg[4] =     0,reg[5] =     4,reg[6] =     2,reg[7] =     4
run
# Memo[   4] = 65535
# reg[0] = 65535,reg[1] = 65534,reg[2] =     0,reg[3] =     4,reg[4] =     0,reg[5] =     4,reg[6] =     2,reg[7] =     4
run
# Memo[   4] = 65535
# reg[0] = 65535,reg[1] = 65534,reg[2] = 65535,reg[3] =     4,reg[4] =     0,reg[5] =     4,reg[6] =     2,reg[7] =     4
run
# Memo[   0] =     0
# reg[0] = 65535,reg[1] = 65534,reg[2] = 65535,reg[3] =     4,reg[4] =     0,reg[5] =     4,reg[6] =     2,reg[7] =     4
run
# Memo[  52] =     0
# reg[0] = 65535,reg[1] = 65534,reg[2] = 65535,reg[3] =     4,reg[4] =    52,reg[5] =     4,reg[6] =     2,reg[7] =     4
run
# Memo[2047] =    49
# reg[0] = 65535,reg[1] = 65534,reg[2] = 65535,reg[3] =     4,reg[4] =    52,reg[5] =     4,reg[6] =     2,reg[7] =     4
run
# Memo[2046] =     0
# reg[0] = 65535,reg[1] = 65534,reg[2] = 65535,reg[3] =     4,reg[4] =    52,reg[5] =     4,reg[6] =     2,reg[7] =     4
run
# Memo[2046] =     0
# reg[0] = 65535,reg[1] = 65534,reg[2] = 65535,reg[3] =     4,reg[4] =    52,reg[5] =     4,reg[6] =     2,reg[7] =     4
run
# Memo[2047] =    49
# reg[0] = 65535,reg[1] = 65534,reg[2] = 65535,reg[3] =     4,reg[4] =    52,reg[5] =     4,reg[6] =     2,reg[7] =     4
# WARNING: No extended dataflow license exists
# Error: invalid command name "::.main_pane.dataflow.interior.cs.body.pw.df.c"
# Error: invalid command name "::.main_pane.dataflow.interior.cs.body.pw.df.c"
quit -sim
# End time: 03:11:32 on Dec 25,2022, Elapsed time: 0:14:58
# Errors: 0, Warnings: 2
# Compile of ALU.v was successful.
# Compile of controlUnit.v was successful.
# Compile of defines.v was successful.
# Compile of forwarding-unit.v was successful.
# Compile of pc.v was successful.
# Compile of processor.v was successful.
# Compile of regfile.v was successful.
# Compile of writeBack.v was successful.
# Compile of controller.v was successful.
# Compile of dataMemory.v was successful.
# Compile of instructionMemory.v was successful.
# Compile of controllerTB.v was successful.
# Compile of DEBuffer.v was successful.
# Compile of stackPointer.v was successful.
# 14 compiles, 0 failed with no errors.
vsim -gui work.controllerTB
# vsim -gui work.controllerTB 
# Start time: 03:11:50 on Dec 25,2022
# Loading work.controllerTB
# Loading work.Controller
# Loading work.IntructionMemory
# Loading work.DataMemory
# Loading work.Processor
# Loading work.PC
# Loading work.ControlUnit
# Loading work.regfile
# Loading work.DEBuffer
# Loading work.ALU
# Loading work.stackPointer
# Loading work.WriteBack
add wave -position end sim:/controllerTB/controller/processor/*
run
# Memo[   x] =     x
# reg[0] =     0,reg[1] =     0,reg[2] =     0,reg[3] =     0,reg[4] =     0,reg[5] =     0,reg[6] =     0,reg[7] =     0
run
# Memo[   0] =     0
# reg[0] =     0,reg[1] =     0,reg[2] =     0,reg[3] =     0,reg[4] =     0,reg[5] =     0,reg[6] =     0,reg[7] =     0
run
# Memo[2047] =     0
# reg[0] = 65535,reg[1] =     0,reg[2] =     0,reg[3] =     0,reg[4] =     0,reg[5] =     0,reg[6] =     0,reg[7] =     0
run
# Memo[2047] =     0
# reg[0] = 65535,reg[1] = 65535,reg[2] =     0,reg[3] =     0,reg[4] =     0,reg[5] =     0,reg[6] =     0,reg[7] =     0
run
# Memo[   0] =     0
# reg[0] = 65535,reg[1] = 65535,reg[2] =     0,reg[3] =     0,reg[4] =     0,reg[5] =     0,reg[6] =     0,reg[7] =     0
run
# Memo[2046] =     0
# reg[0] = 65535,reg[1] = 65534,reg[2] =     0,reg[3] =     0,reg[4] =     0,reg[5] =     0,reg[6] =     0,reg[7] =     0
run
# Memo[   0] =     0
# reg[0] = 65535,reg[1] = 65534,reg[2] =     0,reg[3] =     0,reg[4] =     0,reg[5] =     0,reg[6] =     0,reg[7] =     0
run
# Memo[   6] =     0
# reg[0] = 65535,reg[1] = 65534,reg[2] =     0,reg[3] =     0,reg[4] =     0,reg[5] =     6,reg[6] =     0,reg[7] =     0
run
# Memo[   0] =     0
# reg[0] = 65535,reg[1] = 65534,reg[2] =     0,reg[3] =     0,reg[4] =     0,reg[5] =     6,reg[6] =     0,reg[7] =     0
run
# Memo[   2] =     0
# reg[0] = 65535,reg[1] = 65534,reg[2] =     0,reg[3] =     0,reg[4] =     0,reg[5] =     6,reg[6] =     2,reg[7] =     0
run
# Memo[   4] =     0
# reg[0] = 65535,reg[1] = 65534,reg[2] =     0,reg[3] =     0,reg[4] =     0,reg[5] =     4,reg[6] =     2,reg[7] =     0
run
# Memo[   4] =     0
# reg[0] = 65535,reg[1] = 65534,reg[2] =     0,reg[3] =     4,reg[4] =     0,reg[5] =     4,reg[6] =     2,reg[7] =     0
run
# Memo[2047] =     4
# reg[0] = 65535,reg[1] = 65534,reg[2] =     0,reg[3] =     4,reg[4] =     0,reg[5] =     4,reg[6] =     2,reg[7] =     0
run
# Memo[2047] =     4
# reg[0] = 65535,reg[1] = 65534,reg[2] =     0,reg[3] =     4,reg[4] =     0,reg[5] =     4,reg[6] =     2,reg[7] =     4
run
# Memo[   4] = 65535
# reg[0] = 65535,reg[1] = 65534,reg[2] =     0,reg[3] =     4,reg[4] =     0,reg[5] =     4,reg[6] =     2,reg[7] =     4
run
# Memo[   4] = 65535
# reg[0] = 65535,reg[1] = 65534,reg[2] = 65535,reg[3] =     4,reg[4] =     0,reg[5] =     4,reg[6] =     2,reg[7] =     4
run
# Memo[   0] =     0
# reg[0] = 65535,reg[1] = 65534,reg[2] = 65535,reg[3] =     4,reg[4] =     0,reg[5] =     4,reg[6] =     2,reg[7] =     4
run
# Memo[  52] =     0
# reg[0] = 65535,reg[1] = 65534,reg[2] = 65535,reg[3] =     4,reg[4] =    52,reg[5] =     4,reg[6] =     2,reg[7] =     4
run
# Memo[2047] =    49
# reg[0] = 65535,reg[1] = 65534,reg[2] = 65535,reg[3] =     4,reg[4] =    52,reg[5] =     4,reg[6] =     2,reg[7] =     4
run
# Memo[2046] =     0
# reg[0] = 65535,reg[1] = 65534,reg[2] = 65535,reg[3] =     4,reg[4] =    52,reg[5] =     4,reg[6] =     2,reg[7] =     4
run
# Memo[2045] =     0
# reg[0] = 65533,reg[1] = 65534,reg[2] = 65535,reg[3] =     4,reg[4] =    52,reg[5] =     4,reg[6] =     2,reg[7] =     4
run
# Memo[   0] =     0
# reg[0] = 65533,reg[1] = 65534,reg[2] = 65535,reg[3] =     4,reg[4] =    52,reg[5] =     4,reg[6] =     2,reg[7] =     4
quit -sim
# End time: 03:20:51 on Dec 25,2022, Elapsed time: 0:09:01
# Errors: 0, Warnings: 2
# Compile of ALU.v was successful.
# Compile of controlUnit.v was successful.
# Compile of defines.v was successful.
# Compile of forwarding-unit.v was successful.
# Compile of pc.v was successful.
# Compile of processor.v was successful.
# Compile of regfile.v was successful.
# Compile of writeBack.v was successful.
# Compile of controller.v was successful.
# Compile of dataMemory.v was successful.
# Compile of instructionMemory.v was successful.
# Compile of controllerTB.v was successful.
# Compile of DEBuffer.v was successful.
# Compile of stackPointer.v was successful.
# 14 compiles, 0 failed with no errors.
vsim -gui work.controllerTB
# vsim -gui work.controllerTB 
# Start time: 03:22:04 on Dec 25,2022
# Loading work.controllerTB
# Loading work.Controller
# Loading work.IntructionMemory
# Loading work.DataMemory
# Loading work.Processor
# Loading work.PC
# Loading work.ControlUnit
# Loading work.regfile
# Loading work.DEBuffer
# Loading work.ALU
# Loading work.stackPointer
# Loading work.WriteBack
add wave -position end sim:/controllerTB/controller/processor/*
run
# Memo[   x] =     x
# reg[0] =     0,reg[1] =     0,reg[2] =     0,reg[3] =     0,reg[4] =     0,reg[5] =     0,reg[6] =     0,reg[7] =     0
run
# Memo[   0] =     0
# reg[0] =     0,reg[1] =     0,reg[2] =     0,reg[3] =     0,reg[4] =     0,reg[5] =     0,reg[6] =     0,reg[7] =     0
run
# Memo[2047] =     0
# reg[0] = 65535,reg[1] =     0,reg[2] =     0,reg[3] =     0,reg[4] =     0,reg[5] =     0,reg[6] =     0,reg[7] =     0
run
# Memo[2047] =     0
# reg[0] = 65535,reg[1] = 65535,reg[2] =     0,reg[3] =     0,reg[4] =     0,reg[5] =     0,reg[6] =     0,reg[7] =     0
run
# Memo[   0] =     0
# reg[0] = 65535,reg[1] = 65535,reg[2] =     0,reg[3] =     0,reg[4] =     0,reg[5] =     0,reg[6] =     0,reg[7] =     0
run
# Memo[2046] =     0
# reg[0] = 65535,reg[1] = 65534,reg[2] =     0,reg[3] =     0,reg[4] =     0,reg[5] =     0,reg[6] =     0,reg[7] =     0
run
# Memo[   0] =     0
# reg[0] = 65535,reg[1] = 65534,reg[2] =     0,reg[3] =     0,reg[4] =     0,reg[5] =     0,reg[6] =     0,reg[7] =     0
run
# Memo[   6] =     0
# reg[0] = 65535,reg[1] = 65534,reg[2] =     0,reg[3] =     0,reg[4] =     0,reg[5] =     6,reg[6] =     0,reg[7] =     0
run
# Memo[   0] =     0
# reg[0] = 65535,reg[1] = 65534,reg[2] =     0,reg[3] =     0,reg[4] =     0,reg[5] =     6,reg[6] =     0,reg[7] =     0
run
# Memo[   2] =     0
# reg[0] = 65535,reg[1] = 65534,reg[2] =     0,reg[3] =     0,reg[4] =     0,reg[5] =     6,reg[6] =     2,reg[7] =     0
run
# Memo[   4] =     0
# reg[0] = 65535,reg[1] = 65534,reg[2] =     0,reg[3] =     0,reg[4] =     0,reg[5] =     4,reg[6] =     2,reg[7] =     0
run
# Memo[   4] =     0
# reg[0] = 65535,reg[1] = 65534,reg[2] =     0,reg[3] =     4,reg[4] =     0,reg[5] =     4,reg[6] =     2,reg[7] =     0
run
# Memo[2047] =     4
# reg[0] = 65535,reg[1] = 65534,reg[2] =     0,reg[3] =     4,reg[4] =     0,reg[5] =     4,reg[6] =     2,reg[7] =     0
run
# Memo[2047] =     4
# reg[0] = 65535,reg[1] = 65534,reg[2] =     0,reg[3] =     4,reg[4] =     0,reg[5] =     4,reg[6] =     2,reg[7] =     4
run
# Memo[   4] = 65535
# reg[0] = 65535,reg[1] = 65534,reg[2] =     0,reg[3] =     4,reg[4] =     0,reg[5] =     4,reg[6] =     2,reg[7] =     4
run
# Memo[   4] = 65535
# reg[0] = 65535,reg[1] = 65534,reg[2] = 65535,reg[3] =     4,reg[4] =     0,reg[5] =     4,reg[6] =     2,reg[7] =     4
run
# Memo[   0] =     0
# reg[0] = 65535,reg[1] = 65534,reg[2] = 65535,reg[3] =     4,reg[4] =     0,reg[5] =     4,reg[6] =     2,reg[7] =     4
run
# Memo[  52] =     0
# reg[0] = 65535,reg[1] = 65534,reg[2] = 65535,reg[3] =     4,reg[4] =    52,reg[5] =     4,reg[6] =     2,reg[7] =     4
run
# Memo[2047] =    49
# reg[0] = 65535,reg[1] = 65534,reg[2] = 65535,reg[3] =     4,reg[4] =    52,reg[5] =     4,reg[6] =     2,reg[7] =     4
run
# Memo[2046] =     0
# reg[0] = 65535,reg[1] = 65534,reg[2] = 65535,reg[3] =     4,reg[4] =    52,reg[5] =     4,reg[6] =     2,reg[7] =     4
quit -sim
# End time: 03:24:45 on Dec 25,2022, Elapsed time: 0:02:41
# Errors: 0, Warnings: 2
# Compile of DEBuffer.v was successful.
vsim -gui work.controllerTB
# vsim -gui work.controllerTB 
# Start time: 03:29:24 on Dec 25,2022
# Loading work.controllerTB
# Loading work.Controller
# Loading work.IntructionMemory
# Loading work.DataMemory
# Loading work.Processor
# Loading work.PC
# Loading work.ControlUnit
# Loading work.regfile
# Loading work.DEBuffer
# Loading work.ALU
# Loading work.stackPointer
# Loading work.WriteBack
add wave -position end sim:/controllerTB/controller/processor/*
run
# Memo[   x] =     x
# reg[0] =     0,reg[1] =     0,reg[2] =     0,reg[3] =     0,reg[4] =     0,reg[5] =     0,reg[6] =     0,reg[7] =     0
run
# Memo[   0] =     0
# reg[0] =     0,reg[1] =     0,reg[2] =     0,reg[3] =     0,reg[4] =     0,reg[5] =     0,reg[6] =     0,reg[7] =     0
run
# Memo[2047] =     0
# reg[0] = 65535,reg[1] =     0,reg[2] =     0,reg[3] =     0,reg[4] =     0,reg[5] =     0,reg[6] =     0,reg[7] =     0
run
# Memo[2047] =     0
# reg[0] = 65535,reg[1] = 65535,reg[2] =     0,reg[3] =     0,reg[4] =     0,reg[5] =     0,reg[6] =     0,reg[7] =     0
run
# Memo[   0] =     0
# reg[0] = 65535,reg[1] = 65535,reg[2] =     0,reg[3] =     0,reg[4] =     0,reg[5] =     0,reg[6] =     0,reg[7] =     0
run
# Memo[2046] =     0
# reg[0] = 65535,reg[1] = 65534,reg[2] =     0,reg[3] =     0,reg[4] =     0,reg[5] =     0,reg[6] =     0,reg[7] =     0
run
# Memo[   0] =     0
# reg[0] = 65535,reg[1] = 65534,reg[2] =     0,reg[3] =     0,reg[4] =     0,reg[5] =     0,reg[6] =     0,reg[7] =     0
run
# Memo[   6] =     0
# reg[0] = 65535,reg[1] = 65534,reg[2] =     0,reg[3] =     0,reg[4] =     0,reg[5] =     6,reg[6] =     0,reg[7] =     0
run
# Memo[   0] =     0
# reg[0] = 65535,reg[1] = 65534,reg[2] =     0,reg[3] =     0,reg[4] =     0,reg[5] =     6,reg[6] =     0,reg[7] =     0
run
# Memo[   2] =     0
# reg[0] = 65535,reg[1] = 65534,reg[2] =     0,reg[3] =     0,reg[4] =     0,reg[5] =     6,reg[6] =     2,reg[7] =     0
run
# Memo[   4] =     0
# reg[0] = 65535,reg[1] = 65534,reg[2] =     0,reg[3] =     0,reg[4] =     0,reg[5] =     4,reg[6] =     2,reg[7] =     0
run
# Memo[   4] =     0
# reg[0] = 65535,reg[1] = 65534,reg[2] =     0,reg[3] =     4,reg[4] =     0,reg[5] =     4,reg[6] =     2,reg[7] =     0
run
# Memo[2047] =     4
# reg[0] = 65535,reg[1] = 65534,reg[2] =     0,reg[3] =     4,reg[4] =     0,reg[5] =     4,reg[6] =     2,reg[7] =     0
run
# Memo[2047] =     4
# reg[0] = 65535,reg[1] = 65534,reg[2] =     0,reg[3] =     4,reg[4] =     0,reg[5] =     4,reg[6] =     2,reg[7] =     4
run
# Memo[   4] = 65535
# reg[0] = 65535,reg[1] = 65534,reg[2] =     0,reg[3] =     4,reg[4] =     0,reg[5] =     4,reg[6] =     2,reg[7] =     4
run
# Memo[   4] = 65535
# reg[0] = 65535,reg[1] = 65534,reg[2] = 65535,reg[3] =     4,reg[4] =     0,reg[5] =     4,reg[6] =     2,reg[7] =     4
run
# Memo[   0] =     0
# reg[0] = 65535,reg[1] = 65534,reg[2] = 65535,reg[3] =     4,reg[4] =     0,reg[5] =     4,reg[6] =     2,reg[7] =     4
run
# Memo[  52] =     0
# reg[0] = 65535,reg[1] = 65534,reg[2] = 65535,reg[3] =     4,reg[4] =    52,reg[5] =     4,reg[6] =     2,reg[7] =     4
run
# Memo[2047] =    49
# reg[0] = 65535,reg[1] = 65534,reg[2] = 65535,reg[3] =     4,reg[4] =    52,reg[5] =     4,reg[6] =     2,reg[7] =     4
run
# Memo[  56] =     0
# reg[0] = 65535,reg[1] = 65534,reg[2] = 65535,reg[3] =     4,reg[4] =    52,reg[5] =     4,reg[6] =     2,reg[7] =    56
run
# Memo[2047] =    49
# reg[0] = 65535,reg[1] = 65534,reg[2] = 65535,reg[3] =     4,reg[4] =    52,reg[5] =     4,reg[6] =     2,reg[7] =    56
run
# Memo[   0] =     0
# reg[0] = 65535,reg[1] = 65534,reg[2] = 65535,reg[3] =     4,reg[4] =    52,reg[5] =     4,reg[6] =     2,reg[7] =    56
run
# Memo[   0] =     0
# reg[0] = 65535,reg[1] = 65534,reg[2] = 65535,reg[3] =     4,reg[4] =    52,reg[5] =     4,reg[6] =     2,reg[7] =    56
run
# Memo[   0] =     0
# reg[0] = 65535,reg[1] = 65534,reg[2] = 65535,reg[3] =     4,reg[4] =    52,reg[5] =     4,reg[6] =     2,reg[7] =    56
quit -sim
# End time: 03:42:49 on Dec 25,2022, Elapsed time: 0:13:25
# Errors: 0, Warnings: 2
# Compile of ALU.v was successful.
# Compile of controlUnit.v was successful.
# Compile of defines.v was successful.
# Compile of forwarding-unit.v was successful.
# Compile of pc.v was successful.
# Compile of processor.v was successful.
# Compile of regfile.v was successful.
# Compile of writeBack.v was successful.
# Compile of controller.v was successful.
# Compile of dataMemory.v was successful.
# Compile of instructionMemory.v was successful.
# Compile of controllerTB.v was successful.
# Compile of DEBuffer.v was successful.
# Compile of stackPointer.v was successful.
# 14 compiles, 0 failed with no errors.
