transcript
# Compile of ALU.v was successful.
# Compile of controlUnit.v was successful.
# Compile of defines.v was successful.
# Compile of forwarding-unit.v was successful.
# Compile of pc.v was successful.
# Compile of processor.v was successful.
# Compile of regfile.v was successful.
# Compile of writeBack.v was successful.
# Compile of controller.v was successful.
# Compile of dataMemory.v was successful.
# Compile of instructionMemory.v was successful.
# Compile of controllerTB.v was successful.
# Compile of DEBuffer.v was successful.
# 13 compiles, 0 failed with no errors.
# Compile of ALU.v was successful.
# Compile of controlUnit.v was successful.
# Compile of defines.v was successful.
# Compile of forwarding-unit.v was successful.
# Compile of pc.v was successful.
# Compile of processor.v was successful.
# Compile of regfile.v was successful.
# Compile of writeBack.v was successful.
# Compile of controller.v was successful.
# Compile of dataMemory.v was successful.
# Compile of instructionMemory.v was successful.
# Compile of controllerTB.v was successful.
# Compile of DEBuffer.v was successful.
# 13 compiles, 0 failed with no errors.
vsim -gui work.controllerTB
# vsim -gui work.controllerTB 
# Start time: 14:43:45 on Dec 24,2022
# Loading work.controllerTB
# Loading work.Controller
# Loading work.IntructionMemory
# Loading work.DataMemory
# Loading work.Processor
# Loading work.PC
# Loading work.ControlUnit
# Loading work.regfile
# Loading work.DEBuffer
# Loading work.ALU
# Loading work.WriteBack
add wave -position end sim:/controllerTB/controller/processor/*
run
# reg[0] =     0,reg[1] =     0,reg[2] =     0,reg[3] =     0,reg[4] =     0,reg[5] =     0,reg[6] =     0,reg[7] =     0
run
# reg[0] =     0,reg[1] =     0,reg[2] =     0,reg[3] =     0,reg[4] =     0,reg[5] =     0,reg[6] =     0,reg[7] =     0
run
# reg[0] = 65535,reg[1] =     0,reg[2] =     0,reg[3] =     0,reg[4] =     0,reg[5] =     0,reg[6] =     0,reg[7] =     0
run
# reg[0] = 65535,reg[1] = 65535,reg[2] =     0,reg[3] =     0,reg[4] =     0,reg[5] =     0,reg[6] =     0,reg[7] =     0
run
# reg[0] = 65535,reg[1] = 65535,reg[2] =     0,reg[3] =     0,reg[4] =     0,reg[5] =     0,reg[6] =     0,reg[7] =     0
run
# reg[0] = 65535,reg[1] = 65534,reg[2] =     0,reg[3] =     0,reg[4] =     0,reg[5] =     0,reg[6] =     0,reg[7] =     0
run
# reg[0] = 65535,reg[1] = 65534,reg[2] =     0,reg[3] =     0,reg[4] =     0,reg[5] =     0,reg[6] =     0,reg[7] =     0
run
# reg[0] = 65535,reg[1] = 65534,reg[2] =     0,reg[3] =     0,reg[4] =     0,reg[5] =     6,reg[6] =     0,reg[7] =     0
run
# reg[0] = 65535,reg[1] = 65534,reg[2] =     0,reg[3] =     0,reg[4] =     0,reg[5] =     6,reg[6] =     0,reg[7] =     0
run
# reg[0] = 65535,reg[1] = 65534,reg[2] =     0,reg[3] =     0,reg[4] =     0,reg[5] =     6,reg[6] =     2,reg[7] =     0
run
# reg[0] = 65535,reg[1] = 65534,reg[2] =     0,reg[3] =     0,reg[4] =     0,reg[5] =     4,reg[6] =     2,reg[7] =     0
run
# reg[0] = 65535,reg[1] = 65534,reg[2] =     0,reg[3] =    10,reg[4] =     0,reg[5] =     4,reg[6] =     2,reg[7] =     0
run
# reg[0] = 65535,reg[1] = 65534,reg[2] =     0,reg[3] =     6,reg[4] =     0,reg[5] =     4,reg[6] =     2,reg[7] =     0
run
# reg[0] = 65535,reg[1] = 65534,reg[2] =     0,reg[3] =     6,reg[4] =     0,reg[5] =     4,reg[6] =     2,reg[7] =     0
run
# reg[0] = 65535,reg[1] = 65534,reg[2] =     0,reg[3] =    24,reg[4] =     0,reg[5] =     4,reg[6] =     2,reg[7] =     0
run
# reg[0] = 65535,reg[1] = 65534,reg[2] =     0,reg[3] =     1,reg[4] =     0,reg[5] =     4,reg[6] =     2,reg[7] =     0
run
# reg[0] = 65535,reg[1] = 65534,reg[2] =     0,reg[3] =     1,reg[4] =     0,reg[5] =     4,reg[6] =     2,reg[7] =     0
run
# reg[0] = 65535,reg[1] = 65534,reg[2] =     0,reg[3] =     1,reg[4] =     0,reg[5] =     4,reg[6] =     2,reg[7] =     0
run
# reg[0] = 65535,reg[1] = 65534,reg[2] =     0,reg[3] =     1,reg[4] =     0,reg[5] =     4,reg[6] =     2,reg[7] =     0
quit -sim
# End time: 14:47:04 on Dec 24,2022, Elapsed time: 0:03:19
# Errors: 0, Warnings: 3
# Compile of ALU.v was successful.
# Compile of controlUnit.v was successful.
# Compile of defines.v was successful.
# Compile of forwarding-unit.v was successful.
# Compile of pc.v was successful.
# Compile of processor.v failed with 1 errors.
# Compile of regfile.v was successful.
# Compile of writeBack.v was successful.
# Compile of controller.v was successful.
# Compile of dataMemory.v was successful.
# Compile of instructionMemory.v was successful.
# Compile of controllerTB.v was successful.
# Compile of DEBuffer.v was successful.
# 13 compiles, 1 failed with 1 error.
# Compile of ALU.v was successful.
# Compile of controlUnit.v was successful.
# Compile of defines.v was successful.
# Compile of forwarding-unit.v was successful.
# Compile of pc.v was successful.
# Compile of processor.v was successful.
# Compile of regfile.v was successful.
# Compile of writeBack.v was successful.
# Compile of controller.v was successful.
# Compile of dataMemory.v was successful.
# Compile of instructionMemory.v was successful.
# Compile of controllerTB.v was successful.
# Compile of DEBuffer.v was successful.
# 13 compiles, 0 failed with no errors.
vsim -gui work.controllerTB
# vsim -gui work.controllerTB 
# Start time: 15:37:14 on Dec 24,2022
# Loading work.controllerTB
# Loading work.Controller
# Loading work.IntructionMemory
# Loading work.DataMemory
# Loading work.Processor
# Loading work.PC
# Loading work.ControlUnit
# Loading work.regfile
# Loading work.DEBuffer
# Loading work.ALU
# Loading work.WriteBack
add wave -position end sim:/controllerTB/controller/processor/*
run
# Memo[   x] =     x
# reg[0] =     0,reg[1] =     0,reg[2] =     0,reg[3] =     0,reg[4] =     0,reg[5] =     0,reg[6] =     0,reg[7] =     0
run
# Memo[   x] =     x
# reg[0] =     0,reg[1] =     0,reg[2] =     0,reg[3] =     0,reg[4] =     0,reg[5] =     0,reg[6] =     0,reg[7] =     0
run
# Memo[   0] =     1
# reg[0] = 65535,reg[1] =     0,reg[2] =     0,reg[3] =     0,reg[4] =     0,reg[5] =     0,reg[6] =     0,reg[7] =     0
run
# Memo[2047] =     x
# reg[0] = 65535,reg[1] = 65535,reg[2] =     0,reg[3] =     0,reg[4] =     0,reg[5] =     0,reg[6] =     0,reg[7] =     0
run
# Memo[2047] =     x
# reg[0] = 65535,reg[1] = 65535,reg[2] =     0,reg[3] =     0,reg[4] =     0,reg[5] =     0,reg[6] =     0,reg[7] =     0
run
# Memo[   0] =     1
# reg[0] = 65535,reg[1] = 65534,reg[2] =     0,reg[3] =     0,reg[4] =     0,reg[5] =     0,reg[6] =     0,reg[7] =     0
run
# Memo[2046] =     0
# reg[0] = 65535,reg[1] = 65534,reg[2] =     0,reg[3] =     0,reg[4] =     0,reg[5] =     0,reg[6] =     0,reg[7] =     0
run
# Memo[   0] =     1
# reg[0] = 65535,reg[1] = 65534,reg[2] =     0,reg[3] =     0,reg[4] =     0,reg[5] =     6,reg[6] =     0,reg[7] =     0
run
# Memo[   6] =     0
# reg[0] = 65535,reg[1] = 65534,reg[2] =     0,reg[3] =     0,reg[4] =     0,reg[5] =     6,reg[6] =     0,reg[7] =     0
run
# Memo[   0] =     1
# reg[0] = 65535,reg[1] = 65534,reg[2] =     0,reg[3] =     0,reg[4] =     0,reg[5] =     6,reg[6] =     2,reg[7] =     0
run
# Memo[   2] =     0
# reg[0] = 65535,reg[1] = 65534,reg[2] =     0,reg[3] =     0,reg[4] =     0,reg[5] =     4,reg[6] =     2,reg[7] =     0
run
# Memo[   4] =     0
# reg[0] = 65535,reg[1] = 65534,reg[2] =     0,reg[3] =    10,reg[4] =     0,reg[5] =     4,reg[6] =     2,reg[7] =     0
run
# Memo[  10] =     0
# reg[0] = 65535,reg[1] = 65534,reg[2] =     0,reg[3] =     6,reg[4] =     0,reg[5] =     4,reg[6] =     2,reg[7] =     0
run
# Memo[   6] =     0
# reg[0] = 65535,reg[1] = 65534,reg[2] =     0,reg[3] =     6,reg[4] =     0,reg[5] =     4,reg[6] =     2,reg[7] =     0
run
# Memo[   4] =     0
# reg[0] = 65535,reg[1] = 65534,reg[2] =     0,reg[3] =    24,reg[4] =     0,reg[5] =     4,reg[6] =     2,reg[7] =     0
run
# Memo[  24] =     0
# reg[0] = 65535,reg[1] = 65534,reg[2] =     0,reg[3] =     1,reg[4] =     0,reg[5] =     4,reg[6] =     2,reg[7] =     0
run
# Memo[   1] =     2
# reg[0] = 65535,reg[1] = 65534,reg[2] =     0,reg[3] =     1,reg[4] =     0,reg[5] =     4,reg[6] =     2,reg[7] =     0
run
# Memo[   0] =     1
# reg[0] = 65535,reg[1] = 65534,reg[2] =     0,reg[3] =     1,reg[4] =     0,reg[5] =     4,reg[6] =     2,reg[7] =     0
run
# Memo[   0] =     1
# reg[0] = 65535,reg[1] = 65534,reg[2] =     0,reg[3] =     1,reg[4] =     0,reg[5] =     4,reg[6] =     2,reg[7] =     0
run
# Memo[   z] =     x
# reg[0] = 65535,reg[1] = 65534,reg[2] =     0,reg[3] =     1,reg[4] =     0,reg[5] =     4,reg[6] =     2,reg[7] =     0
quit -sim
# End time: 15:42:40 on Dec 24,2022, Elapsed time: 0:05:26
# Errors: 0, Warnings: 3
# Compile of ALU.v was successful.
# Compile of controlUnit.v was successful.
# Compile of defines.v was successful.
# Compile of forwarding-unit.v was successful.
# Compile of pc.v was successful.
# Compile of processor.v was successful.
# Compile of regfile.v was successful.
# Compile of writeBack.v was successful.
# Compile of controller.v was successful.
# Compile of dataMemory.v was successful.
# Compile of instructionMemory.v was successful.
# Compile of controllerTB.v was successful.
# Compile of DEBuffer.v was successful.
# 13 compiles, 0 failed with no errors.
vsim -gui work.controllerTB
# vsim -gui work.controllerTB 
# Start time: 15:42:58 on Dec 24,2022
# Loading work.controllerTB
# Loading work.Controller
# Loading work.IntructionMemory
# Loading work.DataMemory
# Loading work.Processor
# Loading work.PC
# Loading work.ControlUnit
# Loading work.regfile
# Loading work.DEBuffer
# Loading work.ALU
# Loading work.WriteBack
run
# Memo[   x] =     x
# reg[0] =     0,reg[1] =     0,reg[2] =     0,reg[3] =     0,reg[4] =     0,reg[5] =     0,reg[6] =     0,reg[7] =     0
run
# Memo[   0] =     1
# reg[0] =     0,reg[1] =     0,reg[2] =     0,reg[3] =     0,reg[4] =     0,reg[5] =     0,reg[6] =     0,reg[7] =     0
add wave -position end sim:/controllerTB/controller/processor/*
run
# Memo[2047] =     0
# reg[0] = 65535,reg[1] =     0,reg[2] =     0,reg[3] =     0,reg[4] =     0,reg[5] =     0,reg[6] =     0,reg[7] =     0
restart -f
# ** Note: (vsim-12125) Error and warning message counts have been reset to '0' because of 'restart'.
run
# Memo[   x] =     x
# reg[0] =     0,reg[1] =     0,reg[2] =     0,reg[3] =     0,reg[4] =     0,reg[5] =     0,reg[6] =     0,reg[7] =     0
run
# Memo[   0] =     1
# reg[0] =     0,reg[1] =     0,reg[2] =     0,reg[3] =     0,reg[4] =     0,reg[5] =     0,reg[6] =     0,reg[7] =     0
run
# Memo[2047] =     0
# reg[0] = 65535,reg[1] =     0,reg[2] =     0,reg[3] =     0,reg[4] =     0,reg[5] =     0,reg[6] =     0,reg[7] =     0
run
# Memo[2047] =     0
# reg[0] = 65535,reg[1] = 65535,reg[2] =     0,reg[3] =     0,reg[4] =     0,reg[5] =     0,reg[6] =     0,reg[7] =     0
run
# Memo[   0] =     1
# reg[0] = 65535,reg[1] = 65535,reg[2] =     0,reg[3] =     0,reg[4] =     0,reg[5] =     0,reg[6] =     0,reg[7] =     0
quit -sim
# End time: 15:45:21 on Dec 24,2022, Elapsed time: 0:02:23
# Errors: 0, Warnings: 1
# Compile of ALU.v was successful.
# Compile of controlUnit.v was successful.
# Compile of defines.v was successful.
# Compile of forwarding-unit.v was successful.
# Compile of pc.v was successful.
# Compile of processor.v was successful.
# Compile of regfile.v was successful.
# Compile of writeBack.v was successful.
# Compile of controller.v was successful.
# Compile of dataMemory.v failed with 1 errors.
# Compile of instructionMemory.v was successful.
# Load canceled
# Compile of controllerTB.v was successful.
# Compile of DEBuffer.v was successful.
# 13 compiles, 1 failed with 1 error.
# Compile of dataMemory.v was successful.
vsim -gui work.controllerTB
# vsim -gui work.controllerTB 
# Start time: 15:45:57 on Dec 24,2022
# Loading work.controllerTB
# Loading work.Controller
# Loading work.IntructionMemory
# Loading work.DataMemory
# Loading work.Processor
# Loading work.PC
# Loading work.ControlUnit
# Loading work.regfile
# Loading work.DEBuffer
# Loading work.ALU
# Loading work.WriteBack
add wave -position end sim:/controllerTB/controller/processor/*
run
# Memo[   x] =     x
# reg[0] =     0,reg[1] =     0,reg[2] =     0,reg[3] =     0,reg[4] =     0,reg[5] =     0,reg[6] =     0,reg[7] =     0
run
# Memo[   0] =     1
# reg[0] =     0,reg[1] =     0,reg[2] =     0,reg[3] =     0,reg[4] =     0,reg[5] =     0,reg[6] =     0,reg[7] =     0
quit -sim
# End time: 15:47:30 on Dec 24,2022, Elapsed time: 0:01:33
# Errors: 0, Warnings: 3
# Compile of dataMemory.v was successful.
vsim -gui work.controllerTB
# vsim -gui work.controllerTB 
# Start time: 15:47:43 on Dec 24,2022
# Loading work.controllerTB
# Loading work.Controller
# Loading work.IntructionMemory
# Loading work.DataMemory
# Loading work.Processor
# Loading work.PC
# Loading work.ControlUnit
# Loading work.regfile
# Loading work.DEBuffer
# Loading work.ALU
# Loading work.WriteBack
add wave -position end sim:/controllerTB/controller/processor/*
run
# Memo[   x] =     x
# reg[0] =     0,reg[1] =     0,reg[2] =     0,reg[3] =     0,reg[4] =     0,reg[5] =     0,reg[6] =     0,reg[7] =     0
run
# Memo[   0] =     0
# reg[0] =     0,reg[1] =     0,reg[2] =     0,reg[3] =     0,reg[4] =     0,reg[5] =     0,reg[6] =     0,reg[7] =     0
run
# Memo[2047] =     0
# reg[0] = 65535,reg[1] =     0,reg[2] =     0,reg[3] =     0,reg[4] =     0,reg[5] =     0,reg[6] =     0,reg[7] =     0
run
# Memo[2047] =     0
# reg[0] = 65535,reg[1] = 65535,reg[2] =     0,reg[3] =     0,reg[4] =     0,reg[5] =     0,reg[6] =     0,reg[7] =     0
run
# Memo[   0] =     0
# reg[0] = 65535,reg[1] = 65535,reg[2] =     0,reg[3] =     0,reg[4] =     0,reg[5] =     0,reg[6] =     0,reg[7] =     0
run
# Memo[2046] =     0
# reg[0] = 65535,reg[1] = 65534,reg[2] =     0,reg[3] =     0,reg[4] =     0,reg[5] =     0,reg[6] =     0,reg[7] =     0
run
# Memo[   0] =     0
# reg[0] = 65535,reg[1] = 65534,reg[2] =     0,reg[3] =     0,reg[4] =     0,reg[5] =     0,reg[6] =     0,reg[7] =     0
run
# Memo[   6] =     0
# reg[0] = 65535,reg[1] = 65534,reg[2] =     0,reg[3] =     0,reg[4] =     0,reg[5] =     6,reg[6] =     0,reg[7] =     0
run
# Memo[   0] =     0
# reg[0] = 65535,reg[1] = 65534,reg[2] =     0,reg[3] =     0,reg[4] =     0,reg[5] =     6,reg[6] =     0,reg[7] =     0
run
# Memo[   2] =     0
# reg[0] = 65535,reg[1] = 65534,reg[2] =     0,reg[3] =     0,reg[4] =     0,reg[5] =     6,reg[6] =     2,reg[7] =     0
run
# Memo[   4] =     0
# reg[0] = 65535,reg[1] = 65534,reg[2] =     0,reg[3] =     0,reg[4] =     0,reg[5] =     4,reg[6] =     2,reg[7] =     0
run
# Memo[  10] =     0
# reg[0] = 65535,reg[1] = 65534,reg[2] =     0,reg[3] =    10,reg[4] =     0,reg[5] =     4,reg[6] =     2,reg[7] =     0
run
# Memo[   6] =     0
# reg[0] = 65535,reg[1] = 65534,reg[2] =     0,reg[3] =     6,reg[4] =     0,reg[5] =     4,reg[6] =     2,reg[7] =     0
run
# Memo[   4] =     0
# reg[0] = 65535,reg[1] = 65534,reg[2] =     0,reg[3] =     6,reg[4] =     0,reg[5] =     4,reg[6] =     2,reg[7] =     0
run
# Memo[  24] =     0
# reg[0] = 65535,reg[1] = 65534,reg[2] =     0,reg[3] =    24,reg[4] =     0,reg[5] =     4,reg[6] =     2,reg[7] =     0
run
# Memo[   1] =     0
# reg[0] = 65535,reg[1] = 65534,reg[2] =     0,reg[3] =     1,reg[4] =     0,reg[5] =     4,reg[6] =     2,reg[7] =     0
run
# Memo[   0] =     0
# reg[0] = 65535,reg[1] = 65534,reg[2] =     0,reg[3] =     1,reg[4] =     0,reg[5] =     4,reg[6] =     2,reg[7] =     0
run
# Memo[   0] =     0
# reg[0] = 65535,reg[1] = 65534,reg[2] =     0,reg[3] =     1,reg[4] =     0,reg[5] =     4,reg[6] =     2,reg[7] =     0
run
# Memo[   z] =     x
# reg[0] = 65535,reg[1] = 65534,reg[2] =     0,reg[3] =     1,reg[4] =     0,reg[5] =     4,reg[6] =     2,reg[7] =     0
quit -sim
# End time: 15:49:30 on Dec 24,2022, Elapsed time: 0:01:47
# Errors: 0, Warnings: 2
# Compile of processor.v was successful.
vsim -gui work.controllerTB
# vsim -gui work.controllerTB 
# Start time: 15:51:14 on Dec 24,2022
# Loading work.controllerTB
# Loading work.Controller
# Loading work.IntructionMemory
# Loading work.DataMemory
# Loading work.Processor
# Loading work.PC
# Loading work.ControlUnit
# Loading work.regfile
# Loading work.DEBuffer
# Loading work.ALU
# ** Error: (vsim-3033) Instantiation of 'stackPointer' failed. The design unit was not found.
#    Time: 0 ps  Iteration: 0  Instance: /controllerTB/controller/processor File: F:/Eng/Third Year/First Term/Computer Architecture/Project/Github/MZNM-Processor/processor.v Line: 125
#         Searched libraries:
#             F:/Eng/Third Year/First Term/Computer Architecture/Project/Github/MZNM-Processor/work
# Loading work.WriteBack
# Error loading design
# End time: 15:51:14 on Dec 24,2022, Elapsed time: 0:00:00
# Errors: 1, Warnings: 2
# Compile of stackPointer.v was successful.
# Compile of ALU.v was successful.
# Compile of controlUnit.v was successful.
# Compile of defines.v was successful.
# Compile of forwarding-unit.v was successful.
# Compile of pc.v was successful.
# Compile of processor.v was successful.
# Compile of regfile.v was successful.
# Compile of writeBack.v was successful.
# Compile of controller.v was successful.
# Compile of dataMemory.v was successful.
# Compile of instructionMemory.v was successful.
# Compile of controllerTB.v was successful.
# Compile of DEBuffer.v was successful.
# Compile of stackPointer.v was successful.
# 14 compiles, 0 failed with no errors.
vsim -gui work.controllerTB
# vsim -gui work.controllerTB 
# Start time: 15:52:06 on Dec 24,2022
# Loading work.controllerTB
# Loading work.Controller
# Loading work.IntructionMemory
# Loading work.DataMemory
# Loading work.Processor
# Loading work.PC
# Loading work.ControlUnit
# Loading work.regfile
# Loading work.DEBuffer
# Loading work.ALU
# Loading work.stackPointer
# Loading work.WriteBack
add wave -position end sim:/controllerTB/controller/processor/*
run
# Memo[   x] =     x
# reg[0] =     0,reg[1] =     0,reg[2] =     0,reg[3] =     0,reg[4] =     0,reg[5] =     0,reg[6] =     0,reg[7] =     0
run
# Memo[   0] =     0
# reg[0] =     0,reg[1] =     0,reg[2] =     0,reg[3] =     0,reg[4] =     0,reg[5] =     0,reg[6] =     0,reg[7] =     0
run
# Memo[2047] =     0
# reg[0] = 65535,reg[1] =     0,reg[2] =     0,reg[3] =     0,reg[4] =     0,reg[5] =     0,reg[6] =     0,reg[7] =     0
run
# Memo[2047] =     0
# reg[0] = 65535,reg[1] = 65535,reg[2] =     0,reg[3] =     0,reg[4] =     0,reg[5] =     0,reg[6] =     0,reg[7] =     0
run
# Memo[   0] =     0
# reg[0] = 65535,reg[1] = 65535,reg[2] =     0,reg[3] =     0,reg[4] =     0,reg[5] =     0,reg[6] =     0,reg[7] =     0
run
# Memo[2046] =     0
# reg[0] = 65535,reg[1] = 65534,reg[2] =     0,reg[3] =     0,reg[4] =     0,reg[5] =     0,reg[6] =     0,reg[7] =     0
run
# Memo[   0] =     0
# reg[0] = 65535,reg[1] = 65534,reg[2] =     0,reg[3] =     0,reg[4] =     0,reg[5] =     0,reg[6] =     0,reg[7] =     0
run
# Memo[   6] =     0
# reg[0] = 65535,reg[1] = 65534,reg[2] =     0,reg[3] =     0,reg[4] =     0,reg[5] =     6,reg[6] =     0,reg[7] =     0
run
# Memo[   0] =     0
# reg[0] = 65535,reg[1] = 65534,reg[2] =     0,reg[3] =     0,reg[4] =     0,reg[5] =     6,reg[6] =     0,reg[7] =     0
run
# Memo[   2] =     0
# reg[0] = 65535,reg[1] = 65534,reg[2] =     0,reg[3] =     0,reg[4] =     0,reg[5] =     6,reg[6] =     2,reg[7] =     0
run
# Memo[   4] =     0
# reg[0] = 65535,reg[1] = 65534,reg[2] =     0,reg[3] =     0,reg[4] =     0,reg[5] =     4,reg[6] =     2,reg[7] =     0
run
# Memo[  10] =     0
# reg[0] = 65535,reg[1] = 65534,reg[2] =     0,reg[3] =    10,reg[4] =     0,reg[5] =     4,reg[6] =     2,reg[7] =     0
run
# Memo[   6] =     0
# reg[0] = 65535,reg[1] = 65534,reg[2] =     0,reg[3] =     6,reg[4] =     0,reg[5] =     4,reg[6] =     2,reg[7] =     0
run
# Memo[   4] =     0
# reg[0] = 65535,reg[1] = 65534,reg[2] =     0,reg[3] =     6,reg[4] =     0,reg[5] =     4,reg[6] =     2,reg[7] =     0
run
# Memo[  24] =     0
# reg[0] = 65535,reg[1] = 65534,reg[2] =     0,reg[3] =    24,reg[4] =     0,reg[5] =     4,reg[6] =     2,reg[7] =     0
run
# Memo[   1] =     0
# reg[0] = 65535,reg[1] = 65534,reg[2] =     0,reg[3] =     1,reg[4] =     0,reg[5] =     4,reg[6] =     2,reg[7] =     0
run
# Memo[   0] =     0
# reg[0] = 65535,reg[1] = 65534,reg[2] =     0,reg[3] =     1,reg[4] =     0,reg[5] =     4,reg[6] =     2,reg[7] =     0
run
# Memo[   0] =     0
# reg[0] = 65535,reg[1] = 65534,reg[2] =     0,reg[3] =     1,reg[4] =     0,reg[5] =     4,reg[6] =     2,reg[7] =     0
run
# Memo[2047] =     1
# reg[0] = 65535,reg[1] = 65534,reg[2] =     0,reg[3] =     1,reg[4] =     0,reg[5] =     4,reg[6] =     2,reg[7] =     0
run
# Memo[   0] =     0
# reg[0] = 65535,reg[1] = 65534,reg[2] =     0,reg[3] =     1,reg[4] =     0,reg[5] =     4,reg[6] =     2,reg[7] =     0
# Break key hit
quit -sim
# End time: 15:56:52 on Dec 24,2022, Elapsed time: 0:04:46
# Errors: 0, Warnings: 4
# Compile of ALU.v was successful.
# Compile of controlUnit.v was successful.
# Compile of defines.v was successful.
# Compile of forwarding-unit.v was successful.
# Compile of pc.v was successful.
# Compile of processor.v was successful.
# Compile of regfile.v was successful.
# Compile of writeBack.v was successful.
# Compile of controller.v was successful.
# Compile of dataMemory.v was successful.
# Compile of instructionMemory.v was successful.
# Compile of controllerTB.v was successful.
# Compile of DEBuffer.v was successful.
# Compile of stackPointer.v was successful.
# 14 compiles, 0 failed with no errors.
vsim -gui work.controllerTB
# vsim -gui work.controllerTB 
# Start time: 15:57:10 on Dec 24,2022
# Loading work.controllerTB
# Loading work.Controller
# Loading work.IntructionMemory
# Loading work.DataMemory
# Loading work.Processor
# Loading work.PC
# Loading work.ControlUnit
# Loading work.regfile
# Loading work.DEBuffer
# Loading work.ALU
# Loading work.stackPointer
# Loading work.WriteBack
add wave -position end sim:/controllerTB/controller/processor/*
run
# Memo[   x] =     x
# reg[0] =     0,reg[1] =     0,reg[2] =     0,reg[3] =     0,reg[4] =     0,reg[5] =     0,reg[6] =     0,reg[7] =     0
run
# Memo[   0] =     0
# reg[0] =     0,reg[1] =     0,reg[2] =     0,reg[3] =     0,reg[4] =     0,reg[5] =     0,reg[6] =     0,reg[7] =     0
run
# Memo[2047] =     0
# reg[0] = 65535,reg[1] =     0,reg[2] =     0,reg[3] =     0,reg[4] =     0,reg[5] =     0,reg[6] =     0,reg[7] =     0
run
# Memo[2047] =     0
# reg[0] = 65535,reg[1] = 65535,reg[2] =     0,reg[3] =     0,reg[4] =     0,reg[5] =     0,reg[6] =     0,reg[7] =     0
run
# Memo[   0] =     0
# reg[0] = 65535,reg[1] = 65535,reg[2] =     0,reg[3] =     0,reg[4] =     0,reg[5] =     0,reg[6] =     0,reg[7] =     0
run
# Memo[2046] =     0
# reg[0] = 65535,reg[1] = 65534,reg[2] =     0,reg[3] =     0,reg[4] =     0,reg[5] =     0,reg[6] =     0,reg[7] =     0
run
# Memo[   0] =     0
# reg[0] = 65535,reg[1] = 65534,reg[2] =     0,reg[3] =     0,reg[4] =     0,reg[5] =     0,reg[6] =     0,reg[7] =     0
run
# Memo[   6] =     0
# reg[0] = 65535,reg[1] = 65534,reg[2] =     0,reg[3] =     0,reg[4] =     0,reg[5] =     6,reg[6] =     0,reg[7] =     0
run
# Memo[   0] =     0
# reg[0] = 65535,reg[1] = 65534,reg[2] =     0,reg[3] =     0,reg[4] =     0,reg[5] =     6,reg[6] =     0,reg[7] =     0
run
# Memo[   2] =     0
# reg[0] = 65535,reg[1] = 65534,reg[2] =     0,reg[3] =     0,reg[4] =     0,reg[5] =     6,reg[6] =     2,reg[7] =     0
run
# Memo[   4] =     0
# reg[0] = 65535,reg[1] = 65534,reg[2] =     0,reg[3] =     0,reg[4] =     0,reg[5] =     4,reg[6] =     2,reg[7] =     0
run
# Memo[  10] =     0
# reg[0] = 65535,reg[1] = 65534,reg[2] =     0,reg[3] =    10,reg[4] =     0,reg[5] =     4,reg[6] =     2,reg[7] =     0
run
# Memo[   6] =     0
# reg[0] = 65535,reg[1] = 65534,reg[2] =     0,reg[3] =     6,reg[4] =     0,reg[5] =     4,reg[6] =     2,reg[7] =     0
run
# Memo[   4] =     0
# reg[0] = 65535,reg[1] = 65534,reg[2] =     0,reg[3] =     6,reg[4] =     0,reg[5] =     4,reg[6] =     2,reg[7] =     0
run
# Memo[  24] =     0
# reg[0] = 65535,reg[1] = 65534,reg[2] =     0,reg[3] =    24,reg[4] =     0,reg[5] =     4,reg[6] =     2,reg[7] =     0
run
# Memo[   1] =     0
# reg[0] = 65535,reg[1] = 65534,reg[2] =     0,reg[3] =     1,reg[4] =     0,reg[5] =     4,reg[6] =     2,reg[7] =     0
run
# Memo[   0] =     0
# reg[0] = 65535,reg[1] = 65534,reg[2] =     0,reg[3] =     1,reg[4] =     0,reg[5] =     4,reg[6] =     2,reg[7] =     0
run
# Memo[   0] =     0
# reg[0] = 65535,reg[1] = 65534,reg[2] =     0,reg[3] =     1,reg[4] =     0,reg[5] =     4,reg[6] =     2,reg[7] =     0
run
# Memo[2047] =     1
# reg[0] = 65535,reg[1] = 65534,reg[2] =     0,reg[3] =     1,reg[4] =     0,reg[5] =     4,reg[6] =     2,reg[7] =     0
run
# Memo[2046] = 65534
# reg[0] = 65535,reg[1] = 65534,reg[2] =     0,reg[3] =     1,reg[4] =     0,reg[5] =     4,reg[6] =     2,reg[7] =     0
run
# Memo[2046] = 65534
# reg[0] = 65535,reg[1] = 65534,reg[2] =     0,reg[3] =     1,reg[4] =     0,reg[5] =     4,reg[6] =     2,reg[7] = 65534
run
# Memo[2047] =     1
# reg[0] = 65535,reg[1] = 65534,reg[2] =     0,reg[3] =     1,reg[4] =     1,reg[5] =     4,reg[6] =     2,reg[7] = 65534
run
# Memo[   0] =     0
# reg[0] = 65535,reg[1] = 65534,reg[2] =     0,reg[3] =     1,reg[4] =     1,reg[5] =     4,reg[6] =     2,reg[7] = 65534
quit -sim
# End time: 16:40:59 on Dec 24,2022, Elapsed time: 0:43:49
# Errors: 0, Warnings: 2
# Compile of ALU.v was successful.
# Compile of controlUnit.v was successful.
# Compile of defines.v was successful.
# Compile of forwarding-unit.v was successful.
# Compile of pc.v was successful.
# Compile of processor.v was successful.
# Compile of regfile.v was successful.
# Compile of writeBack.v was successful.
# Compile of controller.v was successful.
# Compile of dataMemory.v was successful.
# Compile of instructionMemory.v was successful.
# Compile of controllerTB.v was successful.
# Compile of DEBuffer.v was successful.
# Compile of stackPointer.v was successful.
# 14 compiles, 0 failed with no errors.
vsim -gui work.controllerTB
# vsim -gui work.controllerTB 
# Start time: 16:41:18 on Dec 24,2022
# Loading work.controllerTB
# Loading work.Controller
# Loading work.IntructionMemory
# Loading work.DataMemory
# Loading work.Processor
# Loading work.PC
# Loading work.ControlUnit
# Loading work.regfile
# Loading work.DEBuffer
# Loading work.ALU
# Loading work.stackPointer
# Loading work.WriteBack
add wave -position end sim:/controllerTB/controller/processor/*
run
# Memo[   x] =     x
# reg[0] =     0,reg[1] =     0,reg[2] =     0,reg[3] =     0,reg[4] =     0,reg[5] =     0,reg[6] =     0,reg[7] =     0
run
# Memo[   0] =     0
# reg[0] =     0,reg[1] =     0,reg[2] =     0,reg[3] =     0,reg[4] =     0,reg[5] =     0,reg[6] =     0,reg[7] =     0
run
# Memo[2047] =     0
# reg[0] = 65535,reg[1] =     0,reg[2] =     0,reg[3] =     0,reg[4] =     0,reg[5] =     0,reg[6] =     0,reg[7] =     0
run
# Memo[2047] =     0
# reg[0] = 65535,reg[1] = 65535,reg[2] =     0,reg[3] =     0,reg[4] =     0,reg[5] =     0,reg[6] =     0,reg[7] =     0
run
# Memo[   0] =     0
# reg[0] = 65535,reg[1] = 65535,reg[2] =     0,reg[3] =     0,reg[4] =     0,reg[5] =     0,reg[6] =     0,reg[7] =     0
run
# Memo[2046] =     0
# reg[0] = 65535,reg[1] = 65534,reg[2] =     0,reg[3] =     0,reg[4] =     0,reg[5] =     0,reg[6] =     0,reg[7] =     0
run
# Memo[   0] =     0
# reg[0] = 65535,reg[1] = 65534,reg[2] =     0,reg[3] =     0,reg[4] =     0,reg[5] =     0,reg[6] =     0,reg[7] =     0
run
# Memo[   6] =     0
