transcript
# Compile of controllerTB.v was successful.
vsim -gui work.controllerTB
# vsim -gui work.controllerTB 
# Start time: 21:11:46 on Dec 30,2022
# Loading work.controllerTB
# Loading work.Controller
# Loading work.IntructionMemory
# Loading work.DataMemory
# Loading work.Processor
# Loading work.PC
# Loading work.FDBuffer
# Loading work.hazardDetectionUnit
# Loading work.regfile
# Loading work.ControlUnit
# Loading work.DEBuffer
# Loading work.ForwardingUnit
# Loading work.ALU
# Loading work.EMBuffer
# Loading work.stackPointer
# Loading work.MWBuffer
# Loading work.WriteBack
add wave -position end sim:/controllerTB/controller/processor/*
run
# Memo[000] = 0000
# reg[0] = 0000,reg[1] = 0000,reg[2] = 0000,reg[3] = 0000,reg[4] = 0000,reg[5] = 0000,reg[6] = 0000,reg[7] = 0000
run
# Memo[000] = 0000
# reg[0] = 0000,reg[1] = 0000,reg[2] = 0000,reg[3] = 0000,reg[4] = 0000,reg[5] = 0000,reg[6] = 0000,reg[7] = 0000
run
# Memo[000] = 0000
# reg[0] = 0000,reg[1] = 0000,reg[2] = 0000,reg[3] = 0000,reg[4] = 0000,reg[5] = 0000,reg[6] = 0000,reg[7] = 0000
run
# Memo[005] = 0000
# reg[0] = 0000,reg[1] = 0000,reg[2] = 0000,reg[3] = 0000,reg[4] = 0000,reg[5] = 0000,reg[6] = 0000,reg[7] = 0000
run
# Memo[019] = 0000
# reg[0] = 0005,reg[1] = 0000,reg[2] = 0000,reg[3] = 0000,reg[4] = 0000,reg[5] = 0000,reg[6] = 0000,reg[7] = 0000
run
# Memo[7ff] = 0000
# reg[0] = 0005,reg[1] = 0019,reg[2] = 0000,reg[3] = 0000,reg[4] = 0000,reg[5] = 0000,reg[6] = 0000,reg[7] = 0000
run
# Memo[320] = 0000
# reg[0] = 0005,reg[1] = 0019,reg[2] = ffff,reg[3] = 0000,reg[4] = 0000,reg[5] = 0000,reg[6] = 0000,reg[7] = 0000
run
# Memo[7ff] = 0000
# reg[0] = 0005,reg[1] = 0019,reg[2] = ffff,reg[3] = f320,reg[4] = 0000,reg[5] = 0000,reg[6] = 0000,reg[7] = 0000
run
# Memo[7ff] = 0025
# reg[0] = 0005,reg[1] = 0019,reg[2] = ffff,reg[3] = f320,reg[4] = ffff,reg[5] = 0000,reg[6] = 0000,reg[7] = 0000
# PUSH SP =       2046
run
# Memo[7fe] = 0000
# reg[0] = 0005,reg[1] = 0019,reg[2] = ffff,reg[3] = f320,reg[4] = ffff,reg[5] = 0000,reg[6] = 0000,reg[7] = 0000
# PUSH SP =       2045
run
# Memo[7fd] = 0000
# reg[0] = 0005,reg[1] = 0019,reg[2] = ffff,reg[3] = f320,reg[4] = ffff,reg[5] = 0000,reg[6] = 0000,reg[7] = 0000
# PUSH SP =       2044
run
# Memo[7fc] = 0000
# reg[0] = 0005,reg[1] = 0019,reg[2] = ffff,reg[3] = f320,reg[4] = ffff,reg[5] = 0000,reg[6] = 0000,reg[7] = 0000
# PUSH SP =       2043
quit -sim
# End time: 21:19:06 on Dec 30,2022, Elapsed time: 0:07:20
# Errors: 0, Warnings: 2
# Compile of controllerTB.v was successful.
vsim -gui work.controllerTB
# vsim -gui work.controllerTB 
# Start time: 21:27:16 on Dec 30,2022
# Loading work.controllerTB
# Loading work.Controller
# Loading work.IntructionMemory
# Loading work.DataMemory
# Loading work.Processor
# Loading work.PC
# Loading work.FDBuffer
# Loading work.hazardDetectionUnit
# Loading work.regfile
# Loading work.ControlUnit
# Loading work.DEBuffer
# Loading work.ForwardingUnit
# Loading work.ALU
# Loading work.EMBuffer
# Loading work.stackPointer
# Loading work.MWBuffer
# Loading work.WriteBack
add wave -position end sim:/controllerTB/controller/processor/*
run
# Memo[000] = 0000
# reg[0] = 0000,reg[1] = 0000,reg[2] = 0000,reg[3] = 0000,reg[4] = 0000,reg[5] = 0000,reg[6] = 0000,reg[7] = 0000
run
# Memo[000] = 0000
# reg[0] = 0000,reg[1] = 0000,reg[2] = 0000,reg[3] = 0000,reg[4] = 0000,reg[5] = 0000,reg[6] = 0000,reg[7] = 0000
run
# Memo[000] = 0000
# reg[0] = 0000,reg[1] = 0000,reg[2] = 0000,reg[3] = 0000,reg[4] = 0000,reg[5] = 0000,reg[6] = 0000,reg[7] = 0000
run
# Memo[005] = 0000
# reg[0] = 0000,reg[1] = 0000,reg[2] = 0000,reg[3] = 0000,reg[4] = 0000,reg[5] = 0000,reg[6] = 0000,reg[7] = 0000
run
# Memo[019] = 0000
# reg[0] = 0005,reg[1] = 0000,reg[2] = 0000,reg[3] = 0000,reg[4] = 0000,reg[5] = 0000,reg[6] = 0000,reg[7] = 0000
run
# Memo[7ff] = 0000
# reg[0] = 0005,reg[1] = 0019,reg[2] = 0000,reg[3] = 0000,reg[4] = 0000,reg[5] = 0000,reg[6] = 0000,reg[7] = 0000
run
# Memo[320] = 0000
# reg[0] = 0005,reg[1] = 0019,reg[2] = ffff,reg[3] = 0000,reg[4] = 0000,reg[5] = 0000,reg[6] = 0000,reg[7] = 0000
run
# Memo[7ff] = 0000
# reg[0] = 0005,reg[1] = 0019,reg[2] = ffff,reg[3] = f320,reg[4] = 0000,reg[5] = 0000,reg[6] = 0000,reg[7] = 0000
run
# Memo[7ff] = 0025
# reg[0] = 0005,reg[1] = 0019,reg[2] = ffff,reg[3] = f320,reg[4] = ffff,reg[5] = 0000,reg[6] = 0000,reg[7] = 0000
# PUSH SP =       2046
run
# Memo[7fe] = 0000
# reg[0] = 0005,reg[1] = 0019,reg[2] = ffff,reg[3] = f320,reg[4] = ffff,reg[5] = 0000,reg[6] = 0000,reg[7] = 0000
# PUSH SP =       2045
run
# Memo[7fd] = 0000
# reg[0] = 0005,reg[1] = 0019,reg[2] = ffff,reg[3] = f320,reg[4] = ffff,reg[5] = 0000,reg[6] = 0000,reg[7] = 0000
# PUSH SP =       2044
run
# Memo[7fc] = 0000
# reg[0] = 0005,reg[1] = 0019,reg[2] = ffff,reg[3] = f320,reg[4] = ffff,reg[5] = 0000,reg[6] = 0000,reg[7] = 0000
# PUSH SP =       2043
run
# Memo[320] = 0000
# reg[0] = 0005,reg[1] = 0019,reg[2] = ffff,reg[3] = f320,reg[4] = ffff,reg[5] = 0000,reg[6] = 0000,reg[7] = 0000
quit -sim
# End time: 21:36:35 on Dec 30,2022, Elapsed time: 0:09:19
# Errors: 0, Warnings: 2
vsim -gui work.controllerTB
# vsim -gui work.controllerTB 
# Start time: 21:43:04 on Dec 30,2022
# Loading work.controllerTB
# Loading work.Controller
# Loading work.IntructionMemory
# Loading work.DataMemory
# Loading work.Processor
# Loading work.PC
# Loading work.FDBuffer
# Loading work.hazardDetectionUnit
# Loading work.regfile
# Loading work.ControlUnit
# Loading work.DEBuffer
# Loading work.ForwardingUnit
# Loading work.ALU
# Loading work.EMBuffer
# Loading work.stackPointer
# Loading work.MWBuffer
# Loading work.WriteBack
add wave -position end sim:/controllerTB/controller/processor/*
restart -f
run
# Memo[000] = 0000
# reg[0] = 0000,reg[1] = 0000,reg[2] = 0000,reg[3] = 0000,reg[4] = 0000,reg[5] = 0000,reg[6] = 0000,reg[7] = 0000
run
# Memo[000] = 0000
# reg[0] = 0000,reg[1] = 0000,reg[2] = 0000,reg[3] = 0000,reg[4] = 0000,reg[5] = 0000,reg[6] = 0000,reg[7] = 0000
run
# Memo[000] = 0000
# reg[0] = 0000,reg[1] = 0000,reg[2] = 0000,reg[3] = 0000,reg[4] = 0000,reg[5] = 0000,reg[6] = 0000,reg[7] = 0000
run
# Memo[005] = 0000
# reg[0] = 0000,reg[1] = 0000,reg[2] = 0000,reg[3] = 0000,reg[4] = 0000,reg[5] = 0000,reg[6] = 0000,reg[7] = 0000
run
# Memo[019] = 0000
# reg[0] = 0005,reg[1] = 0000,reg[2] = 0000,reg[3] = 0000,reg[4] = 0000,reg[5] = 0000,reg[6] = 0000,reg[7] = 0000
run
# Memo[7ff] = 0000
# reg[0] = 0005,reg[1] = 0019,reg[2] = 0000,reg[3] = 0000,reg[4] = 0000,reg[5] = 0000,reg[6] = 0000,reg[7] = 0000
run
# Memo[320] = 0000
# reg[0] = 0005,reg[1] = 0019,reg[2] = ffff,reg[3] = 0000,reg[4] = 0000,reg[5] = 0000,reg[6] = 0000,reg[7] = 0000
run
# Memo[7ff] = 0000
# reg[0] = 0005,reg[1] = 0019,reg[2] = ffff,reg[3] = f320,reg[4] = 0000,reg[5] = 0000,reg[6] = 0000,reg[7] = 0000
run
# Memo[7ff] = 0025
# reg[0] = 0005,reg[1] = 0019,reg[2] = ffff,reg[3] = f320,reg[4] = ffff,reg[5] = 0000,reg[6] = 0000,reg[7] = 0000
# PUSH SP =       2046
run
# Memo[7fe] = 0000
# reg[0] = 0005,reg[1] = 0019,reg[2] = ffff,reg[3] = f320,reg[4] = ffff,reg[5] = 0000,reg[6] = 0000,reg[7] = 0000
# PUSH SP =       2045
run
# Memo[7fd] = 0000
# reg[0] = 0005,reg[1] = 0019,reg[2] = ffff,reg[3] = f320,reg[4] = ffff,reg[5] = 0000,reg[6] = 0000,reg[7] = 0000
# PUSH SP =       2044
run
# Memo[7fc] = 0000
# reg[0] = 0005,reg[1] = 0019,reg[2] = ffff,reg[3] = f320,reg[4] = ffff,reg[5] = 0000,reg[6] = 0000,reg[7] = 0000
# PUSH SP =       2043
run
# Memo[7ff] = 0025
# reg[0] = 0005,reg[1] = 0019,reg[2] = ffff,reg[3] = f320,reg[4] = ffff,reg[5] = 0000,reg[6] = 0000,reg[7] = 0000
run
# Memo[325] = 0000
# reg[0] = 0005,reg[1] = 0019,reg[2] = ffff,reg[3] = f320,reg[4] = ffff,reg[5] = 0000,reg[6] = 0000,reg[7] = ffff
run
# Memo[325] = 0000
# reg[0] = 0005,reg[1] = 0019,reg[2] = ffff,reg[3] = f325,reg[4] = ffff,reg[5] = 0000,reg[6] = 0000,reg[7] = ffff
run
# Memo[7fc] = 0000
# reg[0] = 0005,reg[1] = 0019,reg[2] = ffff,reg[3] = f325,reg[4] = ffff,reg[5] = 0000,reg[6] = 0000,reg[7] = ffff
# POP SP =       2044
run
# Memo[7fd] = 0000
# reg[0] = 0005,reg[1] = 0019,reg[2] = ffff,reg[3] = f325,reg[4] = ffff,reg[5] = 0000,reg[6] = 0000,reg[7] = ffff
# POP SP =       2045
run
# Memo[000] = 0000
# reg[0] = 0005,reg[1] = 0019,reg[2] = ffff,reg[3] = f325,reg[4] = ffff,reg[5] = 0000,reg[6] = 0000,reg[7] = ffff
run
# Memo[000] = 0000
# reg[0] = 0005,reg[1] = 0019,reg[2] = ffff,reg[3] = f325,reg[4] = ffff,reg[5] = 0000,reg[6] = 0000,reg[7] = ffff
run
# Memo[000] = 0000
# reg[0] = 0005,reg[1] = 0019,reg[2] = ffff,reg[3] = f325,reg[4] = ffff,reg[5] = 0000,reg[6] = 0000,reg[7] = ffff
run
# Memo[32a] = 0000
# reg[0] = 0005,reg[1] = 0019,reg[2] = ffff,reg[3] = f325,reg[4] = ffff,reg[5] = 0000,reg[6] = 0000,reg[7] = 0000
run
# Memo[32a] = 0000
# reg[0] = 0005,reg[1] = 0019,reg[2] = ffff,reg[3] = f32a,reg[4] = ffff,reg[5] = 0000,reg[6] = 0000,reg[7] = 0000
run
# Memo[7fe] = 0000
# reg[0] = 0005,reg[1] = 0019,reg[2] = ffff,reg[3] = f32a,reg[4] = ffff,reg[5] = 0000,reg[6] = 0000,reg[7] = 0000
# POP SP =       2046
run
# Memo[7ff] = 0025
# reg[0] = 0005,reg[1] = 0019,reg[2] = ffff,reg[3] = f32a,reg[4] = ffff,reg[5] = 0000,reg[6] = 0000,reg[7] = 0000
# POP SP =       2047
quit -sim
# End time: 21:47:58 on Dec 30,2022, Elapsed time: 0:04:54
# Errors: 0, Warnings: 1
# Compile of controllerTB.v was successful.
vsim -gui work.controllerTB
# vsim -gui work.controllerTB 
# Start time: 01:37:17 on Dec 31,2022
# Loading work.controllerTB
# Loading work.Controller
# Loading work.IntructionMemory
# Loading work.DataMemory
# Loading work.Processor
# Loading work.PC
# Loading work.FDBuffer
# Loading work.hazardDetectionUnit
# Loading work.regfile
# Loading work.ControlUnit
# Loading work.DEBuffer
# Loading work.ForwardingUnit
# Loading work.ALU
# Loading work.EMBuffer
# Loading work.stackPointer
# Loading work.MWBuffer
# Loading work.WriteBack
add wave -position end sim:/controllerTB/controller/processor/*
run
# Memo[000] = 0000
# reg[0] = 0000,reg[1] = 0000,reg[2] = 0000,reg[3] = 0000,reg[4] = 0000,reg[5] = 0000,reg[6] = 0000,reg[7] = 0000
run
# Memo[000] = 0000
# reg[0] = 0000,reg[1] = 0000,reg[2] = 0000,reg[3] = 0000,reg[4] = 0000,reg[5] = 0000,reg[6] = 0000,reg[7] = 0000
run
# Memo[000] = 0000
# reg[0] = 0000,reg[1] = 0000,reg[2] = 0000,reg[3] = 0000,reg[4] = 0000,reg[5] = 0000,reg[6] = 0000,reg[7] = 0000
run
# Memo[005] = 0000
# reg[0] = 0000,reg[1] = 0000,reg[2] = 0000,reg[3] = 0000,reg[4] = 0000,reg[5] = 0000,reg[6] = 0000,reg[7] = 0000
run
# Memo[019] = 0000
# reg[0] = 0005,reg[1] = 0000,reg[2] = 0000,reg[3] = 0000,reg[4] = 0000,reg[5] = 0000,reg[6] = 0000,reg[7] = 0000
run
# Memo[7ff] = 0000
# reg[0] = 0005,reg[1] = 0019,reg[2] = 0000,reg[3] = 0000,reg[4] = 0000,reg[5] = 0000,reg[6] = 0000,reg[7] = 0000
run
# Memo[320] = 0000
# reg[0] = 0005,reg[1] = 0019,reg[2] = ffff,reg[3] = 0000,reg[4] = 0000,reg[5] = 0000,reg[6] = 0000,reg[7] = 0000
run
# Memo[7ff] = 0000
# reg[0] = 0005,reg[1] = 0019,reg[2] = ffff,reg[3] = f320,reg[4] = 0000,reg[5] = 0000,reg[6] = 0000,reg[7] = 0000
run
# Memo[7ff] = 0025
# reg[0] = 0005,reg[1] = 0019,reg[2] = ffff,reg[3] = f320,reg[4] = ffff,reg[5] = 0000,reg[6] = 0000,reg[7] = 0000
# PUSH SP =       2046
run
# Memo[7fe] = 0000
# reg[0] = 0005,reg[1] = 0019,reg[2] = ffff,reg[3] = f320,reg[4] = ffff,reg[5] = 0000,reg[6] = 0000,reg[7] = 0000
# PUSH SP =       2045
run
# Memo[7ff] = 0025
# reg[0] = 0005,reg[1] = 0019,reg[2] = ffff,reg[3] = f320,reg[4] = ffff,reg[5] = 0000,reg[6] = 0000,reg[7] = 0000
run
# Memo[325] = 0000
# reg[0] = 0005,reg[1] = 0019,reg[2] = ffff,reg[3] = f320,reg[4] = ffff,reg[5] = 0000,reg[6] = 0000,reg[7] = ffff
run
# Memo[325] = 0000
# reg[0] = 0005,reg[1] = 0019,reg[2] = ffff,reg[3] = f325,reg[4] = ffff,reg[5] = 0000,reg[6] = 0000,reg[7] = ffff
run
# Memo[7fe] = 0000
# reg[0] = 0005,reg[1] = 0019,reg[2] = ffff,reg[3] = f325,reg[4] = ffff,reg[5] = 0000,reg[6] = 0000,reg[7] = ffff
# POP SP =       2046
run
# Memo[7ff] = 0025
# reg[0] = 0005,reg[1] = 0019,reg[2] = ffff,reg[3] = f325,reg[4] = ffff,reg[5] = 0000,reg[6] = 0000,reg[7] = ffff
# POP SP =       2047
run
# Memo[000] = 0000
# reg[0] = 0005,reg[1] = 0019,reg[2] = ffff,reg[3] = f325,reg[4] = ffff,reg[5] = 0000,reg[6] = 0000,reg[7] = ffff
quit -sim
# End time: 01:41:38 on Dec 31,2022, Elapsed time: 0:04:21
# Errors: 0, Warnings: 2
vsim -gui work.controllerTB
# vsim -gui work.controllerTB 
# Start time: 01:45:26 on Dec 31,2022
# Loading work.controllerTB
# Loading work.Controller
# Loading work.IntructionMemory
# Loading work.DataMemory
# Loading work.Processor
# Loading work.PC
# Loading work.FDBuffer
# Loading work.hazardDetectionUnit
# Loading work.regfile
# Loading work.ControlUnit
# Loading work.DEBuffer
# Loading work.ForwardingUnit
# Loading work.ALU
# Loading work.EMBuffer
# Loading work.stackPointer
# Loading work.MWBuffer
# Loading work.WriteBack
add wave -position end sim:/controllerTB/controller/dataMem/*
add wave -position end sim:/controllerTB/controller/processor/*
run
# Memo[000] = 0000
# reg[0] = 0000,reg[1] = 0000,reg[2] = 0000,reg[3] = 0000,reg[4] = 0000,reg[5] = 0000,reg[6] = 0000,reg[7] = 0000
run
# Memo[000] = 0000
# reg[0] = 0000,reg[1] = 0000,reg[2] = 0000,reg[3] = 0000,reg[4] = 0000,reg[5] = 0000,reg[6] = 0000,reg[7] = 0000
run
# Memo[000] = 0000
# reg[0] = 0000,reg[1] = 0000,reg[2] = 0000,reg[3] = 0000,reg[4] = 0000,reg[5] = 0000,reg[6] = 0000,reg[7] = 0000
run
# Memo[000] = 0000
# reg[0] = 0000,reg[1] = 0000,reg[2] = 0000,reg[3] = 0000,reg[4] = 0000,reg[5] = 0000,reg[6] = 0000,reg[7] = 0000
run
# Memo[035] = 0000
# reg[0] = 0000,reg[1] = 0000,reg[2] = 0000,reg[3] = 0000,reg[4] = 0000,reg[5] = 0000,reg[6] = 0000,reg[7] = 0000
run
# Memo[001] = 0000
# reg[0] = 0035,reg[1] = 0000,reg[2] = 0000,reg[3] = 0000,reg[4] = 0000,reg[5] = 0000,reg[6] = 0000,reg[7] = 0000
quit -sim
# End time: 01:51:22 on Dec 31,2022, Elapsed time: 0:05:56
# Errors: 0, Warnings: 1
# Compile of controllerTB.v was successful.
vsim -gui work.controllerTB
# vsim -gui work.controllerTB 
# Start time: 01:52:28 on Dec 31,2022
# Loading work.controllerTB
# Loading work.Controller
# Loading work.IntructionMemory
# Loading work.DataMemory
# Loading work.Processor
# Loading work.PC
# Loading work.FDBuffer
# Loading work.hazardDetectionUnit
# Loading work.regfile
# Loading work.ControlUnit
# Loading work.DEBuffer
# Loading work.ForwardingUnit
# Loading work.ALU
# Loading work.EMBuffer
# Loading work.stackPointer
# Loading work.MWBuffer
# Loading work.WriteBack
add wave -position end sim:/controllerTB/controller/processor/*
run
# Memo[000] = 0000
# reg[0] = 0000,reg[1] = 0000,reg[2] = 0000,reg[3] = 0000,reg[4] = 0000,reg[5] = 0000,reg[6] = 0000,reg[7] = 0000
run
# Memo[000] = 0000
# reg[0] = 0000,reg[1] = 0000,reg[2] = 0000,reg[3] = 0000,reg[4] = 0000,reg[5] = 0000,reg[6] = 0000,reg[7] = 0000
run
# Memo[000] = 0000
# reg[0] = 0000,reg[1] = 0000,reg[2] = 0000,reg[3] = 0000,reg[4] = 0000,reg[5] = 0000,reg[6] = 0000,reg[7] = 0000
run
# Memo[000] = 0000
# reg[0] = 0000,reg[1] = 0000,reg[2] = 0000,reg[3] = 0000,reg[4] = 0000,reg[5] = 0000,reg[6] = 0000,reg[7] = 0000
run
# Memo[035] = 0000
# reg[0] = 0000,reg[1] = 0000,reg[2] = 0000,reg[3] = 0000,reg[4] = 0000,reg[5] = 0000,reg[6] = 0000,reg[7] = 0000
run
# Memo[001] = 0000
# reg[0] = 0035,reg[1] = 0000,reg[2] = 0000,reg[3] = 0000,reg[4] = 0000,reg[5] = 0000,reg[6] = 0000,reg[7] = 0000
run
# Memo[001] = 0035
# reg[0] = 0035,reg[1] = 0001,reg[2] = 0000,reg[3] = 0000,reg[4] = 0000,reg[5] = 0000,reg[6] = 0000,reg[7] = 0000
run
# Memo[001] = 0035
# reg[0] = 0035,reg[1] = 0001,reg[2] = 0000,reg[3] = 0000,reg[4] = 0000,reg[5] = 0000,reg[6] = 0000,reg[7] = 0000
run
# Memo[000] = 0000
# reg[0] = 0035,reg[1] = 0001,reg[2] = 0000,reg[3] = 0000,reg[4] = 0035,reg[5] = 0000,reg[6] = 0000,reg[7] = 0000
run
# Memo[036] = 0000
# reg[0] = 0035,reg[1] = 0001,reg[2] = 0000,reg[3] = 0000,reg[4] = 0035,reg[5] = 0000,reg[6] = 0000,reg[7] = 0000
run
# Memo[7ff] = 0036
# reg[0] = 0035,reg[1] = 0001,reg[2] = 0000,reg[3] = 0000,reg[4] = 0036,reg[5] = 0000,reg[6] = 0000,reg[7] = 0000
# PUSH SP =       2046
run
# Memo[7ff] = 0036
# reg[0] = 0035,reg[1] = 0001,reg[2] = 0000,reg[3] = 0000,reg[4] = 0036,reg[5] = 0000,reg[6] = 0000,reg[7] = 0000
# POP SP =       2047
run
# Memo[000] = 0000
# reg[0] = 0035,reg[1] = 0001,reg[2] = 0000,reg[3] = 0000,reg[4] = 0036,reg[5] = 0000,reg[6] = 0036,reg[7] = 0000
# A time value could not be extracted from the current line
run
# Memo[037] = 0000
# reg[0] = 0035,reg[1] = 0001,reg[2] = 0000,reg[3] = 0000,reg[4] = 0036,reg[5] = 0000,reg[6] = 0036,reg[7] = 0000
run
# Memo[000] = 0000
# reg[0] = 0035,reg[1] = 0001,reg[2] = 0000,reg[3] = 0000,reg[4] = 0036,reg[5] = 0000,reg[6] = 0037,reg[7] = 0000
run
# Memo[000] = 0000
# reg[0] = 0035,reg[1] = 0001,reg[2] = 0000,reg[3] = 0000,reg[4] = 0036,reg[5] = 0000,reg[6] = 0037,reg[7] = 0000
run
# Memo[000] = 0000
# reg[0] = 0035,reg[1] = 0001,reg[2] = 0000,reg[3] = 0000,reg[4] = 0036,reg[5] = 0000,reg[6] = 0037,reg[7] = 0000
run
# Memo[000] = 0000
# reg[0] = 0035,reg[1] = 0001,reg[2] = 0000,reg[3] = 0000,reg[4] = 0036,reg[5] = 0000,reg[6] = 0037,reg[7] = 0000
run
# Memo[000] = 0000
# reg[0] = 0035,reg[1] = 0001,reg[2] = 0000,reg[3] = 0000,reg[4] = 0036,reg[5] = 0000,reg[6] = 0037,reg[7] = 0000
run
# Memo[000] = 0000
# reg[0] = 0035,reg[1] = 0001,reg[2] = 0000,reg[3] = 0000,reg[4] = 0036,reg[5] = 0000,reg[6] = 0037,reg[7] = 0000
quit -sim
# End time: 02:05:24 on Dec 31,2022, Elapsed time: 0:12:56
# Errors: 0, Warnings: 2
# Compile of ALU.v was successful.
# Compile of dataMemory.v was successful.
# 2 compiles, 0 failed with no errors.
vsim -gui work.controllerTB
# vsim -gui work.controllerTB 
# Start time: 02:57:03 on Dec 31,2022
# Loading work.controllerTB
# Loading work.Controller
# Loading work.IntructionMemory
# Loading work.DataMemory
# Loading work.Processor
# Loading work.PC
# Loading work.FDBuffer
# Loading work.hazardDetectionUnit
# Loading work.regfile
# Loading work.ControlUnit
# Loading work.DEBuffer
# Loading work.ForwardingUnit
# Loading work.ALU
# Loading work.EMBuffer
# Loading work.stackPointer
# Loading work.MWBuffer
# Loading work.WriteBack
add wave -position end sim:/controllerTB/controller/processor/*
run
# Memo[000] = 0000
# reg[0] = 0000,reg[1] = 0000,reg[2] = 0000,reg[3] = 0000,reg[4] = 0000,reg[5] = 0000,reg[6] = 0000,reg[7] = 0000
run
# Memo[000] = 0000
# reg[0] = 0000,reg[1] = 0000,reg[2] = 0000,reg[3] = 0000,reg[4] = 0000,reg[5] = 0000,reg[6] = 0000,reg[7] = 0000
run
# Memo[000] = 0000
# reg[0] = 0000,reg[1] = 0000,reg[2] = 0000,reg[3] = 0000,reg[4] = 0000,reg[5] = 0000,reg[6] = 0000,reg[7] = 0000
run
# Memo[001] = 0000
# reg[0] = 0000,reg[1] = 0000,reg[2] = 0000,reg[3] = 0000,reg[4] = 0000,reg[5] = 0000,reg[6] = 0000,reg[7] = 0000
run
# Memo[002] = 0000
# reg[0] = 0001,reg[1] = 0000,reg[2] = 0000,reg[3] = 0000,reg[4] = 0000,reg[5] = 0000,reg[6] = 0000,reg[7] = 0000
run
# Memo[008] = 0000
# reg[0] = 0002,reg[1] = 0000,reg[2] = 0000,reg[3] = 0000,reg[4] = 0000,reg[5] = 0000,reg[6] = 0000,reg[7] = 0000
run
# Memo[008] = 0000
# reg[0] = 0008,reg[1] = 0000,reg[2] = 0000,reg[3] = 0000,reg[4] = 0000,reg[5] = 0000,reg[6] = 0000,reg[7] = 0000
run
# Memo[002] = 0000
# reg[0] = 0008,reg[1] = 0000,reg[2] = 0000,reg[3] = 0000,reg[4] = 0008,reg[5] = 0000,reg[6] = 0000,reg[7] = 0000
run
# Memo[003] = 0000
# reg[0] = 0002,reg[1] = 0000,reg[2] = 0000,reg[3] = 0000,reg[4] = 0008,reg[5] = 0000,reg[6] = 0000,reg[7] = 0000
run
# Memo[006] = 0000
# reg[0] = 0003,reg[1] = 0000,reg[2] = 0000,reg[3] = 0000,reg[4] = 0008,reg[5] = 0000,reg[6] = 0000,reg[7] = 0000
run
# Memo[006] = 0000
# reg[0] = 0006,reg[1] = 0000,reg[2] = 0000,reg[3] = 0000,reg[4] = 0008,reg[5] = 0000,reg[6] = 0000,reg[7] = 0000
run
# Memo[000] = 0000
# reg[0] = 0006,reg[1] = 0000,reg[2] = 0006,reg[3] = 0000,reg[4] = 0008,reg[5] = 0000,reg[6] = 0000,reg[7] = 0000
run
# Memo[008] = 0000
# reg[0] = 0000,reg[1] = 0000,reg[2] = 0006,reg[3] = 0000,reg[4] = 0008,reg[5] = 0000,reg[6] = 0000,reg[7] = 0000
run
# Memo[000] = 0000
# reg[0] = 0000,reg[1] = 0000,reg[2] = 0006,reg[3] = 0000,reg[4] = 0008,reg[5] = 0000,reg[6] = 0000,reg[7] = 0000
run
# Memo[7ff] = 0000
# reg[0] = 0000,reg[1] = 0000,reg[2] = 0006,reg[3] = 0000,reg[4] = 0000,reg[5] = 0000,reg[6] = 0000,reg[7] = 0000
run
# Memo[7ff] = 0000
# reg[0] = 0000,reg[1] = 0000,reg[2] = 0006,reg[3] = 0000,reg[4] = ffff,reg[5] = 0000,reg[6] = 0000,reg[7] = 0000
run
# Memo[320] = 0000
# reg[0] = 0000,reg[1] = 0000,reg[2] = 0006,reg[3] = 0000,reg[4] = ffff,reg[5] = 0000,reg[6] = 0000,reg[7] = 0000
run
# Memo[7ff] = 0000
# reg[0] = 0000,reg[1] = 0000,reg[2] = 0006,reg[3] = 0000,reg[4] = ffff,reg[5] = f320,reg[6] = 0000,reg[7] = 0000
run
# Memo[000] = 0000
# reg[0] = 0000,reg[1] = 0000,reg[2] = 0006,reg[3] = 0000,reg[4] = ffff,reg[5] = f320,reg[6] = ffff,reg[7] = 0000
run
# Memo[000] = 0000
# reg[0] = 0000,reg[1] = 0000,reg[2] = 0006,reg[3] = 0000,reg[4] = ffff,reg[5] = f320,reg[6] = ffff,reg[7] = 0000
run
# Memo[000] = 0000
# reg[0] = 0000,reg[1] = 0000,reg[2] = 0006,reg[3] = 0000,reg[4] = ffff,reg[5] = f320,reg[6] = ffff,reg[7] = 0000
quit -sim
# End time: 03:04:30 on Dec 31,2022, Elapsed time: 0:07:27
# Errors: 0, Warnings: 2
vsim -gui work.controllerTB
# vsim -gui work.controllerTB 
# Start time: 03:06:09 on Dec 31,2022
# Loading work.controllerTB
# Loading work.Controller
# Loading work.IntructionMemory
# Loading work.DataMemory
# Loading work.Processor
# Loading work.PC
# Loading work.FDBuffer
# Loading work.hazardDetectionUnit
# Loading work.regfile
# Loading work.ControlUnit
# Loading work.DEBuffer
# Loading work.ForwardingUnit
# Loading work.ALU
# Loading work.EMBuffer
# Loading work.stackPointer
# Loading work.MWBuffer
# Loading work.WriteBack
add wave -position end sim:/controllerTB/controller/processor/*
run
# Memo[000] = 0000
# reg[0] = 0000,reg[1] = 0000,reg[2] = 0000,reg[3] = 0000,reg[4] = 0000,reg[5] = 0000,reg[6] = 0000,reg[7] = 0000
run
# Memo[000] = 0000
# reg[0] = 0000,reg[1] = 0000,reg[2] = 0000,reg[3] = 0000,reg[4] = 0000,reg[5] = 0000,reg[6] = 0000,reg[7] = 0000
restart -f
run
# Memo[000] = 0000
# reg[0] = 0000,reg[1] = 0000,reg[2] = 0000,reg[3] = 0000,reg[4] = 0000,reg[5] = 0000,reg[6] = 0000,reg[7] = 0000
run
# Memo[000] = 0000
# reg[0] = 0000,reg[1] = 0000,reg[2] = 0000,reg[3] = 0000,reg[4] = 0000,reg[5] = 0000,reg[6] = 0000,reg[7] = 0000
run
# Memo[000] = 0000
# reg[0] = 0000,reg[1] = 0000,reg[2] = 0000,reg[3] = 0000,reg[4] = 0000,reg[5] = 0000,reg[6] = 0000,reg[7] = 0000
run
# Memo[000] = 0000
# reg[0] = 0000,reg[1] = 0000,reg[2] = 0000,reg[3] = 0000,reg[4] = 0000,reg[5] = 0000,reg[6] = 0000,reg[7] = 0000
run
# Memo[045] = 0000
# reg[0] = 0000,reg[1] = 0000,reg[2] = 0000,reg[3] = 0000,reg[4] = 0000,reg[5] = 0000,reg[6] = 0000,reg[7] = 0000
run
# Memo[7ff] = 0023
# reg[0] = 0045,reg[1] = 0000,reg[2] = 0000,reg[3] = 0000,reg[4] = 0000,reg[5] = 0000,reg[6] = 0000,reg[7] = 0000
# PUSH SP =       2046
# Break key hit
restart -f
run
# Memo[000] = 0000
# reg[0] = 0000,reg[1] = 0000,reg[2] = 0000,reg[3] = 0000,reg[4] = 0000,reg[5] = 0000,reg[6] = 0000,reg[7] = 0000
run
# Memo[000] = 0000
# reg[0] = 0000,reg[1] = 0000,reg[2] = 0000,reg[3] = 0000,reg[4] = 0000,reg[5] = 0000,reg[6] = 0000,reg[7] = 0000
run
# Memo[000] = 0000
# reg[0] = 0000,reg[1] = 0000,reg[2] = 0000,reg[3] = 0000,reg[4] = 0000,reg[5] = 0000,reg[6] = 0000,reg[7] = 0000
run
# Memo[000] = 0000
# reg[0] = 0000,reg[1] = 0000,reg[2] = 0000,reg[3] = 0000,reg[4] = 0000,reg[5] = 0000,reg[6] = 0000,reg[7] = 0000
run
# Memo[02d] = 0000
